<?xml version="1.0" encoding="utf-8"?>
<!-- Generator: Adobe Illustrator 12.0.0, SVG Export Plug-In . SVG Version: 6.00 Build 51448)  -->
<!DOCTYPE svg PUBLIC "-//W3C//DTD SVG 1.1//EN" "http://www.w3.org/Graphics/SVG/1.1/DTD/svg11.dtd" [
	<!ENTITY ns_svg "http://www.w3.org/2000/svg">
	<!ENTITY ns_xlink "http://www.w3.org/1999/xlink">
]>
<svg  version="1.1" id="Layer_1" xmlns="&ns_svg;" xmlns:xlink="&ns_xlink;" width="300" height="106.755"
	 viewBox="0 0 300 106.755" overflow="visible" enable-background="new 0 0 300 106.755" xml:space="preserve">
<rect fill="none" width="300" height="106.755"/>
<g>
	<path fill="#fff" d="M4.887,102.588c0,0,166.108-40.807,289.18-12.059l0.38-1.328c0,0-107.388-31.712-287.497,6.915"/>
	<path fill="#fff" d="M84.401,22.51v6.764c0.612-1.354,1.39-3.19,3.478-4.928c2.261-1.931,5.565-2.997,8.785-2.997
		c1.647,0,3.3,0.294,4.948,0.873c5.13,1.931,6.609,5.987,7.217,7.724c4.002-7.435,10.345-8.495,13.734-8.495
		c4.17,0,7.824,1.548,10.258,3.961c4.345,4.249,4.518,8.879,4.518,20.475v26.657h-12.773V48.878c0-8.019-0.174-9.661-1.48-11.781
		c-1.39-2.319-3.392-2.807-5.306-2.807c-3.474,0-5.211,2.512-5.473,2.901c-1.394,2.414-1.394,6.568-1.394,10.624v24.727H98.139
		V47.334c0-5.409,0-7.824-1.306-10.048c-0.955-1.638-2.869-2.996-5.214-2.996c-1.128,0-2.261,0.292-3.305,0.875
		c-3.739,2.121-3.824,5.794-3.824,15.261v22.117H71.708V22.51"/>
	<polyline fill="#fff" points="188.159,22.51 201.194,22.51 188.159,72.542 176.243,72.542 168.679,38.739 161.208,72.542 
		149.127,72.542 136.087,22.51 149.127,22.51 155.994,53.805 163.034,22.51 174.333,22.51 181.292,53.805 	"/>
	<path fill="#fff" d="M228.689,72.542h12.521V22.415h-12.26v6.47c-2.256-4.828-6.169-7.63-11.125-7.63
		c-8.516,0-19.646,7.342-19.646,27.045c0,15.647,7.995,25.307,18.689,25.307c7.302,0,10.256-4.25,11.819-6.569 M228.032,46.946
		c0,4.543-0.608,8.889-3.304,12.174c-2.261,2.604-4.78,2.801-5.564,2.801c-2.52,0-5.388-1.547-7.13-5.896
		c-1.039-2.509-1.39-5.505-1.39-8.596c0-3.863,0.528-7.824,2.696-11.009c1.563-2.225,3.997-3.669,6.348-3.669
		c1.909,0,3.823,0.96,5.128,2.508C226.466,37.097,228.032,40.476,228.032,46.946z"/>
	<path fill="#fff" d="M270.719,22.51h12.988l-14.293,49.646c-1.044,3.478-2.691,9.179-5.215,11.979
		c-2.349,2.512-5.13,3.673-15.474,3.673c-1.479,0-2.084-0.101-3.39-0.195V76.504h3.39c1.218,0,4.086,0,5.388-1.253
		c1.044-0.873,1.914-2.996,1.914-5.027c0-1.06-0.524-2.997-0.956-4.25L241.162,22.51h13.909l8.17,33.708"/>
	<path fill="#fff" d="M35.066,4.196L13.604,72.542h15.765l4.005-14.521h20.128L57.6,72.542h15.854L51.096,4.196 M43.169,19.205
		l6.859,26.33H36.674L43.169,19.205z"/>
</g>
</svg>
