<?xml version="1.0" encoding="utf-8"?>
<!-- Generator: Adobe Illustrator 21.0.0, SVG Export Plug-In . SVG Version: 6.00 Build 0)  -->
<svg version="1.1" baseProfile="basic" id="Слой_1"
	 xmlns="http://www.w3.org/2000/svg" xmlns:xlink="http://www.w3.org/1999/xlink" x="0px" y="0px" viewBox="0 0 248.3 170.1"
	 xml:space="preserve" height="80px">
<style type="text/css">
	.st0{fill:#FFFFFF;}
</style>
<g>
	<path class="st0" d="M42.5,81.4c4.1,0.4,8,0.7,11.9,1c4.9,0.4,9.8,0.9,14.7,1.3c5.7,0.5,11.4,1.2,16.6,3.7c2.9,1.3,5.3,3.1,6.6,6.1
		c2.5,5.9-0.9,11.9-7.4,13.2c-0.3,0.1-0.6,0.1-1.2,0.3c0.7,0.3,1.1,0.5,1.5,0.7c2.8,1.2,5.5,2.6,7.3,5.2c2.9,4,2,9.5-1.8,12.6
		c-2.7,2.2-5.9,3.1-9.2,3.6c-4.6,0.8-9.2,0.6-13.8,0.1c-4.8-0.5-9.6-0.8-14.4-1.3c-4.7-0.4-9.3-0.8-14-1.2c-0.2,0-0.4-0.1-0.7-0.2
		C39.9,111.5,41.2,96.5,42.5,81.4z M60.9,117.5c2.3,0.6,6.9,0.8,8.9,0.3c0.9-0.3,2-0.8,2.6-1.5c1.2-1.5,0.5-3.5-1.6-4.5
		c-2.9-1.3-6.1-1.2-9.3-1.6C61.3,112.7,61.1,115,60.9,117.5z M62.9,94.1c-0.2,2.3-0.4,4.4-0.6,6.6c2.4,0,4.7,0.2,7-0.1
		c1.5-0.1,2.3-1.3,2.4-2.6c0.1-1.3-0.6-2.4-2.1-2.8C67.5,94.7,65.3,94.4,62.9,94.1z"/>
	<path class="st0" d="M248.3,16.6c-4.5,51.2-8.9,102.3-13.4,153.4c-4.7-0.4-9.3-0.8-13.9-1.2c-5.7-0.5-11.4-1-17.1-1.5
		c-6.7-0.6-13.4-1.2-20.1-1.8c-5.7-0.5-11.3-1-17-1.5c-6.6-0.6-13.2-1.2-19.8-1.7c-5.7-0.5-11.3-1-17-1.5c-6.7-0.6-13.3-1.2-20-1.8
		c-5.7-0.5-11.3-1-17-1.5c-6.6-0.6-13.2-1.2-19.8-1.7c-5.7-0.5-11.4-1-17.1-1.5c-3.8-0.3-7.7-0.6-11.5-1c-0.6-0.1-1.3-0.4-1.7-0.9
		c-14.2-16.3-28.4-32.6-42.5-49c-0.3-0.4-0.5-1-0.5-1.5c0.5-5.7,1-11.4,1.5-17.1C2,79.2,2.5,73.5,3,67.7C3.5,62,4,56.3,4.5,50.6
		c0.3-2.9,0.4-5.8,0.8-8.7c0.1-0.6,0.6-1.2,1.1-1.6c5.7-4.6,11.5-9.2,17.3-13.8C34.5,17.9,45.4,9.2,56.3,0.6C56.7,0.2,57.5,0,58,0
		c6.5,0.5,13.1,1.1,19.6,1.7c5.7,0.5,11.4,1,17.1,1.5c5.7,0.5,11.4,1,17.1,1.5c5.7,0.5,11.3,1,17,1.5c5.8,0.5,11.5,1,17.3,1.5
		c5.7,0.5,11.4,1,17.1,1.5c5.7,0.5,11.5,1,17.2,1.5c5.6,0.5,11.2,1,16.9,1.5c6.7,0.6,13.4,1.2,20.1,1.8c5.7,0.5,11.3,1,17,1.5
		C238.9,15.8,243.5,16.2,248.3,16.6z M245.3,19.2c-8.9-0.8-17.6-1.6-26.3-2.3c-8.3-0.7-16.7-1.4-25-2.2c-11-1-21.9-2-32.9-2.9
		c-10.5-0.9-21-1.8-31.5-2.8c-11.4-1-22.9-2-34.3-3C83.9,5,72.5,4.1,61.1,3c-2.1-0.2-4-0.1-5.5,1.6c-0.3,0.3-0.6,0.5-1,0.8
		C39.3,17.6,23.9,29.8,8.6,42c-0.3,0.3-0.6,0.8-0.6,1.2c-0.2,2-0.4,4-0.6,6c-0.5,5.8-1,11.5-1.5,17.3c-0.5,5.6-1,11.2-1.5,16.9
		c-0.5,5.8-1,11.5-1.5,17.3c-0.1,0.9,0.2,1.6,0.8,2.3c8.9,10.2,17.7,20.4,26.5,30.5c4.7,5.5,9.5,10.9,14.2,16.4
		c0.3,0.4,0.8,0.8,1.3,0.8c4.5,0.4,8.9,0.8,13.4,1.2c5.5,0.5,11.1,1,16.6,1.4c6.7,0.6,13.3,1.2,20,1.8c5.7,0.5,11.3,1,17,1.5
		c6.6,0.6,13.2,1.2,19.8,1.8c5.7,0.5,11.4,1,17.1,1.5c6.7,0.6,13.5,1.2,20.2,1.8c5.6,0.5,11.2,1,16.7,1.5c6.6,0.6,13.1,1.2,19.7,1.8
		c6.8,0.6,13.5,1.2,20.3,1.8c1.9,0.2,3.9,0.3,5.9,0.5C236.7,117.7,241,68.5,245.3,19.2z"/>
	<path class="st0" d="M98,86.4c0,0,14.8,1.3,22.2,1.9c0,0.4,0,0.8,0,1.1c-0.4,4.7-0.8,9.5-1.3,14.2c-0.3,3.9-0.7,7.8-1,11.7
		c-0.2,2.8,1,4.3,3.7,5c1.1,0.3,2.4,0.4,3.5,0.4c2.8-0.1,4.4-1.5,4.7-4.2c0.4-3.4,0.7-6.9,1-10.3c0.5-5.5,1-11.1,1.5-16.7
		c1.2,0.1,2.2,0.1,3.3,0.2c9.2,0.8,18.5,1.7,27.7,2.5c5.2,0.5,10.3,0.9,15.5,1.3c0.8,0.1,1.1,0.4,1.4,1.1c1.7,3.6,3.4,7.1,5.2,10.7
		c0.2,0.3,0.5,0.5,0.7,0.8c0.2-0.3,0.5-0.5,0.7-0.8c2.3-3.3,4.5-6.6,6.8-9.8c0.2-0.3,0.7-0.5,1-0.5c6.2,0.5,12.3,1.1,18.5,1.6
		c2.2,0.2,4.4,0.4,6.8,0.6c-0.4,0.4-0.6,0.7-0.9,1c-7.4,7.4-14.8,14.7-22.2,22.2c-0.5,0.5-0.8,1.1-0.8,1.8c-0.6,6-1.1,12-1.6,18
		c0,0.1-0.1,0.2-0.1,0.5c-7.4-0.6-14.9-1.3-22.4-2c0.1-1.4,0.2-2.7,0.3-4.1c0.4-4.8,0.9-9.6,1.3-14.4c0-0.5,0-1.1-0.3-1.5
		c-6-8.4-12.1-16.9-18.1-25.3c-0.1-0.1-0.2-0.3-0.5-0.6c-0.1,1.2-0.2,2.2-0.3,3.2c-0.5,5.7-0.9,11.3-1.5,17
		c-0.3,3.1-0.5,6.3-1.2,9.3c-1.7,6.3-6.2,9.7-12.2,11.5c-4.8,1.5-9.8,1.7-14.8,1.4c-5.3-0.3-10.5-1.1-15.5-2.9
		c-3.5-1.3-6.6-3.1-9.1-5.8c-3.3-3.7-4.5-8-4.1-12.9c0.5-5.9,1-11.8,1.5-17.7C97.4,92.9,98,86.4,98,86.4z"/>
	<path class="st0" d="M37.6,29.9c4.1,0.4,8,0.7,11.9,1c4.9,0.4,9.8,0.9,14.7,1.3c5.7,0.5,11.4,1.2,16.6,3.7c2.9,1.3,5.3,3.1,6.6,6.1
		C89.9,48,86.5,54,80,55.3c-0.3,0.1-0.6,0.1-1.2,0.3c0.7,0.3,1.1,0.5,1.5,0.7c2.8,1.2,5.5,2.6,7.3,5.2c2.9,4,2,9.5-1.8,12.6
		c-2.7,2.2-5.9,3.1-9.2,3.6c-4.6,0.8-9.2,0.6-13.8,0.1c-4.8-0.5-9.6-0.8-14.4-1.3c-4.7-0.4-9.3-0.8-14-1.2c-0.2,0-0.4-0.1-0.7-0.2
		C35,60.1,36.3,45.1,37.6,29.9z M56,66c2.3,0.6,6.9,0.8,8.9,0.3c0.9-0.3,2-0.8,2.6-1.5c1.2-1.5,0.5-3.5-1.6-4.5
		c-2.9-1.3-6.1-1.2-9.3-1.6C56.5,61.3,56.3,63.6,56,66z M58.1,42.6c-0.2,2.3-0.4,4.4-0.6,6.6c2.4,0,4.7,0.2,7-0.1
		c1.5-0.1,2.3-1.3,2.4-2.6c0.1-1.3-0.6-2.4-2.1-2.8C62.7,43.3,60.4,43,58.1,42.6z"/>
	<path class="st0" d="M94.1,35.1c14.3,1.2,28.4,2.5,42.6,3.7c-0.4,4.2-0.7,8.3-1.1,12.4c-6.5-0.6-12.8-1.1-19.3-1.7
		c-0.1,1.4-0.2,2.7-0.4,4.2c5.9,0.5,11.7,1,17.7,1.6c-0.3,3.9-0.7,7.8-1,11.8c-5.9-0.5-11.7-1-17.7-1.5c-0.1,1.4-0.3,2.8-0.4,4.3
		c6.7,0.6,13.3,1.2,20,1.8c-0.4,4.1-0.7,8.2-1.1,12.4c-14.4-1.3-28.8-2.5-43.3-3.8C91.5,65.3,92.8,50.3,94.1,35.1z"/>
	<path class="st0" d="M187.9,46.7c-2.4,3.7-4.8,7.3-7.1,10.8c-2.4-1.1-4.7-2.2-7-3.1c-2.7-1-5.6-1.7-8.6-1.3c-0.3,0-0.7,0.1-1,0.2
		c-0.9,0.3-1.6,0.7-1.7,1.7c-0.1,1,0.7,1.4,1.5,1.7c2.8,0.8,5.6,1.5,8.4,2.3c3.4,0.9,6.8,2.1,9.8,4.1c7.7,4.9,6.6,14,1,18.6
		c-3.5,2.8-7.5,4.2-11.8,5c-9.9,1.7-19.5,0-28.9-2.9c-2.6-0.8-5.1-1.8-7.8-2.8c2.8-4.2,5.5-8.2,8.2-12.3c1.7,1,3.3,2,4.9,2.9
		c3.4,1.8,7,3,10.9,3.2c1.3,0.1,2.8,0.1,4.1-0.3c1.4-0.5,1.5-1.1,1.5-1.7c0-0.6-0.5-1.6-1.6-2c-2-0.7-4.2-1.2-6.3-1.7
		c-3.6-0.8-7.1-1.7-10.3-3.4c-2.9-1.6-5.6-3.6-6.5-6.9c-1.3-4.7,0.4-8.7,4-11.9c3.7-3.3,8.3-4.9,13.1-5.6c10.5-1.6,20.5,0,30,4.7
		C187,46.1,187.7,46.6,187.9,46.7z"/>
	<path class="st0" d="M201,59c-4.3-0.2-8.4-0.5-12.7-0.7c0.4-4.9,0.8-9.7,1.3-14.8c16.1,1.4,32.2,2.8,48.4,4.2
		c-0.4,4.9-0.8,9.8-1.3,14.8c-4.2-0.5-8.3-1-12.6-1.5c-0.9,10.3-1.8,20.5-2.7,30.9c-7.7-0.7-15.3-1.3-23.1-2
		C199.2,79.6,200.1,69.4,201,59z"/>
	<path class="st0" d="M18.6,82.7c-4.5,0-8.2-3.7-8.1-8.2c0-4.5,3.7-8.1,8.2-8.1c4.5,0,8.2,3.8,8.2,8.2
		C26.8,79.1,23.1,82.7,18.6,82.7z M18.6,80c2.9,0,5.4-2.5,5.4-5.3c0-2.9-2.5-5.5-5.4-5.5c-2.9,0-5.4,2.5-5.4,5.5
		C13.3,77.6,15.7,80,18.6,80z"/>
	<g>
		<path class="st0" d="M221.8,105.4c-1.6-0.2-2.6-1.6-2.4-3.2c0.2-1.5,1.6-2.6,3.1-2.4c1.5,0.2,2.6,1.6,2.4,3.1
			C224.7,104.5,223.3,105.6,221.8,105.4z M221.9,105c1.3,0.2,2.5-0.8,2.6-2.1c0.1-1.3-0.8-2.4-2.1-2.6c-1.3-0.2-2.5,0.8-2.6,2
			C219.6,103.6,220.6,104.8,221.9,105z"/>
		<path class="st0" d="M223.3,104.4c-0.4,0.1-0.6-0.1-0.7-0.4c-0.2-0.4-0.3-0.7-0.5-1.1c-0.2,0-0.3,0-0.5-0.1
			c-0.1,0.4-0.1,0.9-0.2,1.3c-0.2,0-0.3,0-0.5-0.1c0.1-1.1,0.3-2.1,0.4-3.2c0.6,0,1.1,0.1,1.7,0.2c0.4,0.1,0.6,0.4,0.6,0.8
			c0,0.4-0.2,0.7-0.6,0.9c-0.1,0-0.2,0-0.3,0.1C222.9,103.4,223.1,103.9,223.3,104.4z M221.7,102.4c0,0,0.7,0.1,1,0.1
			c0.3,0,0.3-0.2,0.4-0.5c0-0.2,0-0.4-0.3-0.5c-0.3-0.1-1-0.2-1-0.2L221.7,102.4z"/>
	</g>
</g>
</svg>
