<?xml version="1.0" encoding="utf-8"?>
<!-- Generator: Adobe Illustrator 21.0.0, SVG Export Plug-In . SVG Version: 6.00 Build 0)  -->
<svg version="1.1" baseProfile="basic" id="Слой_1"
	 xmlns="http://www.w3.org/2000/svg" xmlns:xlink="http://www.w3.org/1999/xlink" x="0px" y="0px" viewBox="0 0 170.1 170.1"
	 xml:space="preserve" height="80px">
<style type="text/css">
	.st0{fill:#FFFFFF;}
</style>
<g>
	<path class="st0" d="M59.2,80.3c-0.5-0.9-1.2-1.6-2.2-1.9c-0.7-0.2-1.5-0.3-2.2-0.2c-1.2,0.2-2.1,0.7-2.8,1.7
		c-0.5,0.8-0.7,1.7-0.9,2.6c-0.1,0.9-0.1,1.7-0.2,2.6c0,0,0,0,0.1,0c0,0.5,0,1,0,1.5c0,1,0.2,2,0.6,3c0.4,1,1.1,1.7,2.2,2.1
		c0.9,0.3,1.8,0.3,2.7,0.2c1-0.2,1.8-0.7,2.4-1.6c0.5-0.7,0.8-1.6,0.9-2.4c0.2-1.6,0.2-3.3,0.1-4.9C59.8,81.9,59.6,81.1,59.2,80.3z"
		/>
	<path class="st0" d="M0.2,0.4v170.1h170.1V0.4H0.2z M39.9,95.5c-0.1,0-0.1,0-0.2,0c-4.4,0-8.8,0-13.2,0c-0.1,0-0.2,0-0.3-0.1
		c-1.5-1.6-2.9-3.1-4.4-4.7c-1.2-1.3-2.4-2.5-3.6-3.8c0,0-0.1-0.1-0.2-0.1c0,2.9,0,5.8,0,8.7c-3.6,0-7.2,0-10.8,0
		c0-7.1,0-14.2,0-21.3c3.6,0,7.2,0,10.8,0c0,2.4,0,4.9,0,7.3c0.1,0,0.1-0.1,0.2-0.1c1.1-1,2.2-1.9,3.3-2.9c1.2-1,2.3-2.1,3.5-3.1
		c0.4-0.4,0.8-0.7,1.3-1.1c0,0,0.1-0.1,0.2-0.1c3.9,0,7.9,0,11.8,0c0,0,0,0,0.1,0c-3.3,3-6.6,6-9.9,9C32.3,87.3,36.1,91.4,39.9,95.5
		C39.9,95.5,39.9,95.5,39.9,95.5z M71,86.9c-0.1,1-0.2,1.9-0.4,2.8c-0.3,1.3-0.9,2.5-1.9,3.4c-0.6,0.6-1.4,1.1-2.2,1.5
		c-1.3,0.6-2.7,0.9-4.1,1.1c-1.5,0.2-3.1,0.4-4.6,0.4c-0.8,0-1.6,0-2.3,0c-1.8,0-3.5,0-5.3-0.2c-1.7-0.2-3.4-0.4-5-1
		c-1.2-0.4-2.2-1-3.1-1.9c-0.8-0.9-1.4-1.9-1.7-3.1c-0.4-1.2-0.5-2.5-0.6-3.7c-0.1-1.2,0-2.4,0.1-3.6c0.1-1.3,0.3-2.5,0.8-3.7
		c0.7-1.6,1.8-2.8,3.4-3.6c1.1-0.5,2.2-0.9,3.4-1.1c1.4-0.3,2.9-0.4,4.3-0.5c1.4-0.1,2.7-0.1,4.1-0.1c1.6,0,3.2,0.1,4.8,0.2
		c1.6,0.2,3.1,0.4,4.6,0.9c1,0.3,1.9,0.8,2.8,1.5c0.6,0.5,1.1,1.1,1.5,1.8c0.6,1.1,1,2.3,1.1,3.6C71.1,83.5,71.1,85.2,71,86.9z
		 M105.3,95.7c-3.7,0-7.4,0-11,0c0-2.7,0-5.4,0-8.1c-2.7,0-5.3,0-7.9,0c0,2.7,0,5.4,0,8.1c-3.7,0-7.4,0-11.1,0c0-7.1,0-14.2,0-21.2
		c3.7,0,7.3,0,11,0c0,2.4,0,4.8,0,7.3c2.7,0,5.3,0,7.9,0c0-2.4,0-4.9,0-7.3c3.7,0,7.4,0,11,0C105.3,81.5,105.3,88.6,105.3,95.7z
		 M134,95.7c-7.8,0-15.6,0-23.4,0c0-7.1,0-14.2,0-21.2c3.8,0,7.5,0,11.3,0c0,5.4,0,10.8,0,16.2c0.1,0,0.1,0,0.1,0c1.6,0,3.2,0,4.8,0
		c1.7,0,3.4,0,5.1,0c0.8,0,1.5-0.3,2-1c0,0,0,0,0.1-0.1C134,91.6,134,93.7,134,95.7z M133.3,80.6c-0.4,0.5-0.9,0.9-1.5,1.1
		c-1.3,0.5-2.6,0.9-3.9,1.4c0,0-0.1,0-0.1,0c0.3-0.5,0.5-0.9,0.8-1.3c-0.1-0.1-0.2-0.1-0.3-0.2c-1-0.6-1.7-1.5-2-2.7
		c-0.2-0.7-0.2-1.4,0-2.2c0.2-0.6,0.5-1.1,1-1.5c0.9-0.7,1.9-1,3-0.9c1,0.1,1.8,0.4,2.5,1.1c0.6,0.6,1.1,1.4,1.3,2.3
		C134.2,78.8,133.9,79.7,133.3,80.6z M163.1,91c-0.1,0.6-0.4,1.2-0.8,1.7c-0.6,0.9-1.4,1.5-2.4,2c-2,1.1-4.1,1.7-6.3,2.1
		c-1.1,0.2-2.3,0.3-3.5,0.4c-0.1,0-0.1,0-0.2,0c-0.6,0-1.2,0-1.8,0c-0.3,0-0.7,0-1-0.1c-1.3-0.1-2.7-0.2-4-0.5
		c-1.8-0.4-3.6-0.9-5.3-1.7c-0.1,0-0.1-0.1-0.1-0.2c0-1.9,0-3.8,0-5.8c0,0,0,0,0,0c0.3,0.2,0.5,0.4,0.8,0.6c0.7,0.6,1.6,0.9,2.4,1.3
		c1.2,0.5,2.5,0.8,3.9,1c1.2,0.2,2.5,0.3,3.7,0.2c0.3,0,0.6-0.1,0.9-0.2c0.6-0.2,0.8-0.7,0.9-1.3c0.1-0.6-0.2-1-0.6-1.3
		c-0.5-0.4-1.1-0.6-1.7-0.8c-1-0.3-1.9-0.5-2.9-0.7c-1.8-0.3-3.5-0.8-5.1-1.6c-0.8-0.4-1.5-0.9-2.1-1.6c-0.6-0.7-0.9-1.5-1.1-2.4
		c-0.1-1,0-1.9,0.3-2.8c0.3-0.7,0.7-1.3,1.2-1.9c1-1,2.1-1.7,3.4-2.2c1.4-0.6,3-1,4.5-1.2c1.8-0.3,3.5-0.3,5.3-0.2
		c1.1,0,2.1,0.1,3.2,0.2c1.7,0.1,3.4,0.5,5,1.1c0.2,0.1,0.4,0.1,0.5,0.2c0,0,0.1,0.1,0.1,0.2c0,1.9,0,3.7,0,5.6c0,0,0,0.1,0,0.1
		c-0.1-0.1-0.3-0.2-0.4-0.3c-1.1-0.9-2.3-1.5-3.7-1.9c-1.6-0.4-3.2-0.5-4.9,0c-0.5,0.2-1,0.4-1.3,0.9c-0.4,0.6-0.3,1.2,0.3,1.6
		c0.5,0.3,1,0.5,1.6,0.6c1.4,0.3,2.8,0.7,4.2,1c1.2,0.3,2.4,0.6,3.5,1.2c1.3,0.7,2.3,1.6,2.9,2.9C163.1,88.6,163.3,89.8,163.1,91z"
		/>
</g>
</svg>
