<?xml version="1.0" encoding="utf-8"?>
<!-- Generator: Adobe Illustrator 21.0.0, SVG Export Plug-In . SVG Version: 6.00 Build 0)  -->
<svg version="1.1" baseProfile="basic" id="Слой_1"
	 xmlns="http://www.w3.org/2000/svg" xmlns:xlink="http://www.w3.org/1999/xlink" x="0px" y="0px" viewBox="0 0 178.3 170.1"
	 xml:space="preserve" height="80px">
<style type="text/css">
	.st0{fill:#FFFFFF;}
</style>
<g>
	<path class="st0" d="M90.3,0c0,0,18.2,55.4,20.8,63.4c0.2,0.8,0.7,0.8,1.3,0.8c15,0,29.9,0,44.9,0c6.7,0,13.5,0.1,20.2,0.1
		c0.2,0,0.3,0,0.8,0.1c-0.5,0.5-0.8,0.9-1.2,1.3c-5,4-9.8,8-14.9,11.8c-11.4,8.5-22.9,16.8-34.3,25.2c-0.9,0.6-1.6,1.4-2.5,2.1
		c-0.5,0.4-0.6,0.8-0.4,1.4c5.2,15.8,10.3,31.7,15.5,47.5c1.6,5,5,16.2,5,16.2s-4.9-3.4-7.3-5.2c-14.5-10.5-28.9-20.9-43.4-31.4
		c-1.2-0.9-2.5-1.7-3.8-2.6c-0.6-0.4-1.1-0.4-1.7,0c-6.9,4.9-13.9,9.6-20.7,14.6c-10.8,7.8-21.6,15.7-32.4,23.6
		c-0.4,0.3-0.9,0.6-1.6,1.1c0.2-0.7,0.3-1.1,0.5-1.6c4.7-14.6,9.5-29.2,14.2-43.8c2-6.2,3.9-12.4,6-18.6c0.2-0.8,0-1.2-0.6-1.6
		c-4.4-3.3-8.8-6.6-13.3-9.9c-13.3-9.7-26.7-19.3-40.1-29C1,65.3,0.6,65,0,64.6c0.5,0,0.8-0.1,1.1-0.1c19.2-0.2,38.4-0.3,57.6-0.5
		c3.1,0,6.2-0.1,9.3-0.1c0.7,0,1.1-0.2,1.3-0.9C73.2,51,90.3,0,90.3,0z"/>
</g>
</svg>
