<?xml version="1.0" encoding="utf-8"?>
<!-- Generator: Adobe Illustrator 21.0.0, SVG Export Plug-In . SVG Version: 6.00 Build 0)  -->
<svg version="1.1" baseProfile="basic" id="Слой_1"
	 xmlns="http://www.w3.org/2000/svg" xmlns:xlink="http://www.w3.org/1999/xlink" x="0px" y="0px" viewBox="0 0 408.4 170.1"
	 xml:space="preserve" height="80px">
<style type="text/css">
	.st0{fill:#FFFFFF;}
</style>
<g>
	<path class="st0" d="M55.7,93.5c5.8-0.4,11.4-1.8,16.7-3.9c9.2-3.7,16.8-9.5,22.1-18c4.4-7,6.3-14.8,6.2-23
		c-0.1-5.9-0.8-11.6-3-17.1C92.9,18.8,83.1,12,70.6,8.6C61.7,6.3,52.6,5.8,43.5,7c-7,0.9-13.7,2.8-19.8,6.1C8.1,21.5,0,34.5,0,52.2
		c0,3.3,0.5,6.5,1.1,9.8c2.5,13.3,10.1,22.6,22.6,27.8c7.8,3.2,16,4.3,24.4,4.3C50.7,93.9,53.2,93.7,55.7,93.5z M27.2,59.8
		c-0.8-3.2-1.5-7.3-1.6-9.8c-0.3-8.9,2-13.8,7.3-19c5.7-5.6,12.8-7.1,20.5-6.6c4.5,0.3,8.7,1.4,12.4,4c4.7,3.3,7.2,7.9,8.3,13.4
		c1.4,7.2,1.4,14.4-1.9,21.2c-3.6,7.3-9.7,11.1-17.5,12.5c-5,0.9-9.9,0.5-14.7-1.2C33.1,71.9,29,66.8,27.2,59.8z"/>
	<path class="st0" d="M163.3,32.2c0.1,3.6,0.1,7.2,0,10.8c-0.1,1.6,0.4,2.2,2.1,2.2c4.1-0.1,8.3,0,12.4,0c0,11.2,0,22.2,0,33.1
		c-4.5,0.5-8.9,1-13.2,1.5c0,4.4,0,8.4,0,12.6c16.9,0,33.8,0,50.9,0c0-4,0-7.9,0-11.8c0-0.3-0.6-0.8-0.9-0.9
		c-3.5-0.5-7-0.9-10.5-1.2c-1.5-0.1-2.1-0.4-2.1-2c0.1-9.8,0-19.6,0-29.5c0-0.6,0.1-1.2,0.1-2c5.4,0,10.7,0,16,0c0-5.1,0-9.9,0-14.9
		c-5.4,0-10.7,0-16,0c0-2.7-0.2-5.2,0.1-7.6c0.3-2.4,1.6-4.3,3.8-5.4c2.5-1.2,5.1-1.5,7.8-1.3c2.9,0.2,5.7,0.6,8.7,0.9
		c0.4-4.9,0.8-9.6,1.2-14.3c0.1-1-0.2-1.4-1.2-1.5c-5.3-0.2-10.7-0.7-16-0.6c-4.8,0.1-9.6,0.9-14.2,2.7c-8.6,3.4-13.3,9.6-13.9,18.9
		c-0.2,2.8-0.3,5.5-0.5,8.5c-4.2,0-8.3,0.1-12.5,0C163.6,30,163.2,30.6,163.3,32.2z"/>
	<path class="st0" d="M118.2,77.2c0,1.2-0.8,1.1-1.6,1.2c-2.8,0.2-5.7,0.4-8.5,0.8c-3.5,0.4-3.5,0.5-3.5,4c0,0.9,0,1.8,0,2.7
		c0,2.1,0,4.2,0,6.3c17.1,0,34,0,50.9,0c0-4.2,0-8.2,0-12.6c-3.8-0.4-7.7-0.9-11.5-1.2c-1.5-0.1-2-0.5-1.9-2c0.1-9.9,0-19.8,0-29.7
		c0-0.5,0.1-1.1,0.1-1.7c4.7,0,9.4-0.1,14,0c1.8,0.1,2.3-0.6,2.2-2.3c-0.1-3.2,0-6.5,0-9.7c0-3.6,0.4-3-3-3c-4.4,0-8.7,0-13.3,0
		c0-2.6-0.2-5,0-7.3c0.3-2.8,1.8-5.2,4.6-6.1c2.3-0.7,4.7-1,7.1-1c2.9,0,5.7,0.5,8.7,0.8c0.5-5,1-9.8,1.4-14.7c0-0.3-0.8-1-1.3-1
		c-1.6-0.2-3.3-0.3-4.9-0.4c-7.9-0.8-15.7-0.5-23.3,1.6c-10.2,2.8-16.1,10.6-16.2,21.1c0,2.3,0,4.6,0,7c-5.1,0-9.8,0-14.6,0
		c0,5,0,9.9,0,15c4.9,0,9.7,0,14.5,0C118.2,56,118.2,66.6,118.2,77.2z"/>
	<path class="st0" d="M120.1,133.8c-0.9-7.4-4.1-13.4-10.4-17.5c-7.1-4.7-15.2-6.1-23.4-6.2c-14.4-0.2-28.8,0.2-43.2,0.3
		c-0.2,0-0.4,0.1-0.6,0.2c0,3.5,0,6.9,0,10.4c2.8,0.3,5.5,0.7,8.2,0.8c1.5,0.1,1.9,0.6,1.9,2c-0.1,10.6,0,21.2,0,31.9
		c0,0.5-0.1,1.1-0.1,1.5c-3.5,0.4-6.8,0.8-10.1,1.2c0,3.6,0,7,0,10.7c14,0,27.8,0,41.7,0c5.4,0,10.6-1.3,15.6-3.1
		c7-2.5,12.9-6.4,16.8-13C120,146.9,120.9,140.6,120.1,133.8z M95.9,144.9c-1.6,5.1-5.1,8.3-10.2,9.3c-3.5,0.7-10.9,0.7-10.9,0.7
		s0-20.6,0-31c5.3-0.3,10.6-0.6,15.7,1.7c3.2,1.5,5,4.2,5.7,7.6C96.9,137.1,97.1,141.1,95.9,144.9z"/>
	<path class="st0" d="M408.2,53.2c-0.6-7.1-3.7-13-9.3-17.5c-6.3-5.1-13.9-6.6-21.8-7c-5.5-0.3-10.9,0.3-16.2,1.9
		c-9.8,2.9-17.2,8.7-21,18.4c-2.4,6.1-2.8,12.5-1.9,19c1.4,10.3,6.6,17.6,16.2,21.8c6.7,2.9,13.8,3.8,21,3.9c5,0,10.1-0.3,15.1-0.9
		c4.8-0.6,9.6-1.9,14.4-2.9c1-0.2,1.3-0.8,1.1-1.7c-0.4-2.3-0.7-4.7-1.1-7c-0.3-2-0.7-4-1-6.1c-0.6,0.1-0.9,0.1-1.3,0.3
		c-8.6,2.8-17.3,4.2-26.3,3.1c-2.9-0.4-5.9-1.3-8.6-2.5c-3.5-1.5-6.2-6.4-5.3-9.8c7.6,0,15.2,0,22.8,0c7.6,0,15.2,0,23.4,0
		C408.3,61.7,408.6,57.4,408.2,53.2z M384.9,53.1c-7.6,0-15.2,0-22.9,0c0.4-3.6,2-6.4,5-8.2c3.8-2.4,8-2.7,12.2-1.3
		C383.3,45.1,385.2,48.4,384.9,53.1z"/>
	<path class="st0" d="M320.5,116.3c-6-4.6-13-6.4-20.3-7.1c-8.3-0.8-16.6-0.2-24.6,2.8c-8,3-14.7,7.5-18.9,15.2
		c-3,5.5-3.8,11.3-3.1,17.6c1,8.5,4.8,15.2,12.2,19.6c7.4,4.5,15.7,5.4,22.5,5.6c7.8,0,13.8-0.8,19.6-2.9
		c7.8-2.7,14.3-7.1,18.7-14.3c3.5-5.8,4.5-12.2,3.6-18.9C329.4,126.7,326.4,120.8,320.5,116.3z M299.9,153c-6,3-12.1,3.1-17.8-0.6
		c-3.7-2.4-4.9-6.3-5.1-10.4c-0.2-2.8,0-5.8,0.7-8.5c1.5-5.6,5.7-8.5,11.2-9.3c2.8-0.4,5.8-0.1,8.6,0.4c5,0.9,8.5,4.7,9.3,9.7
		c0.3,1.5,0.4,3.1,0.6,4.7C307.3,145.1,305.5,150.2,299.9,153z"/>
	<path class="st0" d="M243.7,115.7c-6-4.1-12.8-5.2-19.8-5.8c-3.6-0.3-7.2-0.1-10.8-0.1c-9.5,0.1-19,0.3-28.5,0.4
		c-0.2,0-0.5,0.1-0.8,0.1c0,3.2,0,6.3,0,9.4c0,0.4,0.6,1,1,1.1c2.4,0.3,4.8,0.7,7.2,0.7c1.5,0,2,0.5,2,2c-0.1,10.6,0,21.2,0,31.8
		c0,0.5-0.1,1.1-0.1,1.6c-3.4,0.4-6.7,0.8-10,1.2c0,3.6,0,7.1,0,10.7c0.8,0,1.5,0,2.1,0c8.2,0,16.4,0,24.5,0c4.7,0,9.4,0,14.1,0
		c0.8,0,1.6,0.1,1.6-1.2c0-3.1,0-6.2,0-9.5c-3.5-0.4-6.8-0.8-10.2-1.2c0-2,0-3.9,0-5.7c4.8-0.5,9.5-0.8,14.1-1.6
		c6.7-1.2,12.6-4,16.9-9.5C252.6,133,252.1,121.5,243.7,115.7z M223.8,137.8c-2.4,1.1-4.9,1.4-7.7,1c0-5.1-0.2-9.9-0.2-15.5
		c2.4,0.2,4.9-0.1,7.1,0.5c3.7,0.9,5.8,3.3,5.9,6.7C228.9,133.4,227.3,136.2,223.8,137.8z"/>
	<path class="st0" d="M164.7,152.1c-3.9,0-3.9,0-5,3.5c-2.7,0-5.3,0-8,0c0-3.7,0-7.2,0-10.9c1.8,0,3.4,0,5.1,0
		c1.1,0,1.8,0.1,2.2,1.3c0.1,0.4,1.1,0.9,1.6,0.9c3.2,0.1,6.5,0,9.7,0c1.1,0,2.3,0,3.4,0c0-5.5,0-10.7,0-16.1c-4.3,0-8.4,0-12.5,0
		c-1.2,0-2.1,0.1-2.4,1.5c-0.1,0.3-0.6,0.7-0.9,0.7c-2,0.1-4.1,0-6.1,0c0-3.4,0-6.6,0-9.8c2.8,0,5.4,0,8.1,0c0.8,3.1,0.8,3.1,4,3.1
		c0.5,0,1,0,1.5,0c4,0,8,0,12.1,0c0-5.5,0-10.7,0-16c-19.3,0-38.4,0-57.6,0c0,3.5,0,7,0,10.5c2.7,0.3,5.3,0.7,7.9,0.8
		c1.6,0,2,0.5,2,2.1c-0.1,10.6,0,21.1,0,31.7c0,0.6,0,1.2-0.1,1.7c-3.4,0.4-6.6,0.8-9.8,1.1c0,3.6,0,7,0,10.6c19.5,0,38.8,0,58.1,0
		c0-5.6,0-11,0-16.7C173.4,152.1,169.1,152.1,164.7,152.1z"/>
	<path class="st0" d="M280.3,83.9c6.1,6.1,14,8.3,22.2,9.1c4.6,0.5,9.3,0.6,13.9,0.3c5.5-0.3,10.9-1.3,16.5-2
		c-0.6-6-1.1-11.4-1.6-17c-0.6,0.1-1,0.2-1.4,0.3c-6.8,2.1-13.6,2.8-20.6,1.4c-5.8-1.1-10.2-4-11.2-10.1c-0.5-3.1-0.6-6.4-0.2-9.6
		c0.4-3.3,2-6.3,4.7-8.6c3.5-2.9,7.5-3.1,11.7-2.8c0.5,0,1.2,0.8,1.4,1.3c0.5,1.6,0.7,3.2,1.1,4.8c0.1,0.5,0.8,1.1,1.2,1.1
		c4.7,0.1,9.5,0.1,14.5,0.1c0-6.9,0-13.6,0-20.3c0-0.4-0.6-1.1-1.1-1.2c-2.7-0.6-5.3-1.2-8-1.5c-9.1-0.8-18.2-0.7-27.1,2
		c-8.6,2.7-15.6,7.4-19.9,15.6c-3.2,6-4,12.5-3.6,19.2C273.2,73.1,275.4,79.1,280.3,83.9z"/>
	<path class="st0" d="M401.9,110.4c-23.2,0-46.3,0-69.5,0c0,6.4,0,12.7,0,19.3c5.4,0,10.6,0,15.7-0.1c0.4,0,1.1-0.7,1.2-1.1
		c0.4-1.5,0.7-3,1-4.6c1.9,0,3.8,0,5.7,0c0,11.1,0,22.1,0,33.1c-3.4,0.4-6.6,0.8-9.9,1.1c0,3.6,0,7.1,0,10.6c14,0,28,0,42,0
		c0-3.5,0-6.9,0-10.6c-3.3-0.4-6.6-0.8-9.9-1.2c0-11.1,0-22.1,0-33.1c2,0,3.9,0,5.7,0c0.3,1.6,0.7,3,0.9,4.5c0.1,1,0.6,1.3,1.6,1.3
		c2.7,0,5.4,0,8.1,0c2.4,0,4.8,0,7.4,0C401.9,123.2,401.9,116.8,401.9,110.4z"/>
	<path class="st0" d="M237.1,47c0,5.6,0,11.2,0,16.8c0,4.3,0,8.7,0,13c0,0.8,0,1.5-1.2,1.6c-3.7,0.3-7.4,0.8-11,1.1
		c-1,0.1-1.3,0.5-1.3,1.5c0,3.4,0,6.8,0,10.3c0,0.3,0.1,0.7,0.2,1c16.6,0,33,0,49.6,0c0-4.2,0-8.2,0-12.6c-4-0.5-8.1-1-12.4-1.6
		c0-16,0-32,0-48c-12.6-0.3-24.9-0.1-37.3,1.1c0,4.2,0,8.3,0,12.3c4.5,0.4,8.8,0.9,13.4,1.3C237.1,45.7,237.1,46.3,237.1,47z"/>
	<path class="st0" d="M237.8,19.8c3.1,2.9,7,4,11.2,4.1c4.8,0,8.9-1.6,11.7-4.5c3.5-3.6,3.8-8.4,1-12.3c-5.3-7.2-18.1-7.9-24.6-1
		C233.3,10.3,233.6,16,237.8,19.8z"/>
	<path class="st0" d="M401.2,158.9c-2.7,0-4.8,2.1-4.8,4.8c0,2.7,2.1,4.9,4.8,4.9c2.7,0,4.9-2.2,4.8-4.9
		C406,161,403.8,158.9,401.2,158.9z M401.2,167.7c-2.3,0-4.1-1.8-4.1-4c0-2.2,1.8-4,4-4c2.2,0,4,1.8,4.1,4
		C405.3,165.9,403.4,167.7,401.2,167.7z"/>
	<path class="st0" d="M402.6,163.9c0.7-0.3,1-0.9,0.9-1.7c-0.1-0.7-0.5-1.2-1.2-1.3c-0.9-0.1-1.9-0.1-2.9,0c0,1.9,0,3.7,0,5.5
		c0.3,0,0.5,0,0.9,0c0-0.8,0-1.5,0-2.3c0.4,0,0.6,0,0.9,0c0.4,0.6,0.8,1.2,1.1,1.8c0.3,0.5,0.6,0.7,1.3,0.5c-0.5-0.8-1-1.5-1.4-2.3
		C402.3,164,402.4,164,402.6,163.9z M400.3,163.3v-1.7c0,0,1.1,0,1.7,0.1c0.4,0,0.6,0.3,0.6,0.7c0,0.4-0.1,0.8-0.5,0.9
		C401.5,163.4,400.3,163.3,400.3,163.3z"/>
</g>
</svg>
