<?xml version="1.0" encoding="utf-8"?>
<!-- Generator: Adobe Illustrator 21.0.0, SVG Export Plug-In . SVG Version: 6.00 Build 0)  -->
<svg version="1.1" baseProfile="basic" id="Слой_1"
	 xmlns="http://www.w3.org/2000/svg" xmlns:xlink="http://www.w3.org/1999/xlink" x="0px" y="0px" viewBox="0 0 849.6 170.1"
	 xml:space="preserve" height="60px">
<style type="text/css">
	.st0{fill:#FFFFFF;}
</style>
<g>
	<path class="st0" d="M701.6,66.6c0,9.9,0,19.4,0,29.2c-24.3,0-48.4,0-72.5,0c-0.5,1.5-0.6,37.7-0.2,40.6c27.5,0,55.1,0,82.8,0
		c0,9.8,0,19.3,0,28.9c-1.3,0.4-111,0.6-114.3,0.2c0-53.6,0-107.2,0-160.8c1.3-0.4,108.6-0.4,110.6,0c0,9.6,0,19.2,0,29.1
		c-13.2,0-26.4,0-39.6,0c-13.2,0-26.4,0-39.7,0c0,11,0,21.9,0,32.9C653,66.6,677.2,66.6,701.6,66.6z"/>
	<path class="st0" d="M118.9,52c-10.4,0-20.5,0-30.7,0c-0.2-1.1-0.3-2.2-0.5-3.2C85.8,38.8,80,32.5,70.2,30
		c-8.3-2.1-16.7-2.3-25,0.7c-4.2,1.5-7.9,3.8-10.2,7.7c-3,5.2-3.2,10.6-1,16.1c1.1,2.8,3.3,4.8,5.9,6.3c2.5,1.5,5.3,2.4,8.2,3.1
		c13.1,3.5,26.2,6.9,39.3,10.4c6.2,1.7,12.2,3.9,17.8,7.1c10.8,6.2,16.9,15.5,18.5,27.8c0.8,6.2,1.1,12.5,0,18.8
		c-2.9,15.7-11.5,27.3-25.8,34.4c-10,5-20.7,7.7-31.8,7.6c-12-0.2-23.9-1.3-35.2-6c-16.3-6.8-26.1-18.9-29.5-36.2
		c-0.7-3.3-0.8-6.8-1.1-10.2c-0.1-0.5,0-1.1,0-1.8c10.2,0,20.3,0,30.5,0c0.2,1.5,0.3,3.1,0.6,4.6c2,10.1,8.1,16.6,17.9,19.1
		c11.1,2.9,22.2,2.6,32.9-1.7c7.1-2.9,11.1-9.1,11-16.8c0-6.2-2.8-10.5-8.1-13.4c-4.1-2.3-8.6-3.7-13.1-4.8
		c-7.6-1.9-15.3-3.7-23-5.6c-6.8-1.7-13.5-3.3-20-6c-3.3-1.4-6.5-2.9-9.5-4.7C12.1,82,7,75.5,4.6,67.3C1.4,56.3,1,45.2,4.5,34.2
		c4.9-15.7,15.4-25.8,31-30.7c6.2-2,12.6-3,19.1-3.3C58.7,0,63-0.1,67.2,0.1c11,0.5,21,4.1,30.1,10.3c12.4,8.6,19,20.7,21.1,35.4
		C118.7,47.8,118.7,49.8,118.9,52z"/>
	<path class="st0" d="M836.1,52c-10.4,0-20.5,0-30.7,0c-0.3-1.5-0.5-3-0.8-4.4c-1.9-8.9-7.2-14.8-15.9-17.3
		c-9.6-2.8-19.1-2.9-28.4,1.3c-5.6,2.5-9.3,6.6-10.4,12.7c-0.7,3.5-0.4,7.1,1.1,10.4c1.5,3.4,4,5.7,7.3,7.1
		c3.3,1.3,6.8,2.4,10.3,3.3c11.9,3.2,23.9,6.3,35.8,9.5c6,1.6,11.7,3.6,17.2,6.6c11.4,6.3,17.8,16,19.2,28.9
		c0.6,5.4,0.8,10.9,0,16.4c-1.8,12.1-7.4,22-16.8,29.8c-6.5,5.4-14.2,8.4-22.2,10.7c-6.1,1.7-12.4,2.4-18.8,2.8
		c-8.5,0.4-16.8-0.4-25-2.3c-8.8-2-16.9-5.6-23.8-11.4c-7.4-6.2-12.1-14.1-14.8-23.3c-1.5-5.1-2.2-10.3-2.3-15.6c0-0.3,0-0.6,0-0.9
		c1.3-0.4,28.4-0.5,30.6-0.1c0.2,1.4,0.2,2.8,0.5,4.2c1.9,10.4,8.3,16.6,18.2,19.5c5.2,1.5,10.5,1.6,15.9,1.6
		c6-0.1,11.7-1.4,17.2-3.7c6.5-2.8,10.6-8.9,10.5-16c0-1.7-0.1-3.5-0.5-5.2c-0.8-3.2-2.8-5.7-5.4-7.5c-3-2.1-6.4-3.6-9.9-4.6
		c-6.9-2-13.9-3.7-20.9-5.6c-7.8-2.1-15.6-4.1-23.4-6.3c-4.1-1.2-7.9-2.9-11.6-5c-8.9-5.1-14.7-12.5-17.1-22.5
		c-2.5-10.3-2.7-20.7,0.4-30.9C726,19.2,735.7,9.5,750,4.3c7-2.5,14.3-3.8,21.7-4.1c4.2-0.2,8.5-0.3,12.7-0.1
		c11.2,0.5,21.4,4.2,30.5,10.7c12,8.5,18.3,20.3,20.5,34.6C835.7,47.5,835.8,49.6,836.1,52z"/>
	<path class="st0" d="M356.6,165.5c-11.8,0-23.2,0-34.8,0c-3.2-11-6.4-22-9.5-33.1c-18.3,0-36.4,0-54.7,0c-3.4,11-6.9,22-10.4,33.1
		c-11.1,0-22.1,0-33.4,0c17.8-53.8,35.5-107.4,53.2-161c12.2,0,24.3,0,36.7,0C321.2,58,338.9,111.6,356.6,165.5z M303.6,104.1
		c-6.2-20.7-12.3-41.2-18.6-61.9c-1.3,3-18.3,60.5-18.3,61.9C279,104.1,291.2,104.1,303.6,104.1z"/>
	<path class="st0" d="M395.6,107.9c0,19.2,0,38.3,0,57.5c-10.7,0-21.3,0-31.9,0c0-53.6,0-107.1,0-160.8c0.6,0,1.1-0.1,1.7-0.1
		c22.4,0,44.8,0,67.2,0c7,0,13.9,1.1,20.3,4c11,4.9,18.5,13.2,22.5,24.4c6.6,18.7,5.4,37-4.8,54.2c-6.6,11.1-16.7,17.7-29.4,20.1
		c-3.3,0.6-6.7,0.7-10,0.7c-11.4-0.1-22.9,0-34.3,0C396.5,107.8,396.2,107.9,395.6,107.9z M395.7,79.3c0.7,0,1.1,0,1.5,0
		c9.1,0,18.2,0,27.2,0c1.9,0,3.7-0.2,5.6-0.4c8.7-1.2,14.3-6.2,16.3-14.6c1.2-5.1,1.2-10.4,0.4-15.6c-1.2-7.7-5.7-12.5-13.2-14.5
		c-3.7-1-7.4-1.5-11.2-1.5c-8.4-0.1-16.8,0-25.2,0c-0.5,0-1,0.1-1.5,0.1C395.7,48.3,395.7,63.7,395.7,79.3z"/>
	<path class="st0" d="M557.9,79.6c-9.9,1.9-19.5,3.8-29.3,5.7c-1.9-9.5-3.7-18.9-5.5-28.3c-1.8-9.3-3.6-18.6-5.5-27.9
		c-0.2,0-0.3,0-0.5-0.1c-0.2,0.3-0.5,0.6-0.5,0.9c-0.1,0.5,0,1,0,1.5c0,34.2,0,68.4,0,102.6c0,0.7,0,1.3,0,2.2c24.6,0,49,0,73.5,0
		c0,9.8,0,19.5,0,29.2c-0.5,0.1-1,0.2-1.4,0.2c-28.5,0-57,0-85.5,0c-8.1,0-15.4-6.3-16.8-14.3c-0.2-1.3-0.3-2.7-0.3-4.1
		c0-39,0-78,0-117c0-15.4,11.6-28.5,27-30c13.4-1.3,24,3.6,31.1,15.3c2.1,3.4,3.1,7.1,3.8,11c2.6,14.2,5.4,28.4,8.1,42.7
		C556.6,72.6,557.2,76,557.9,79.6z"/>
	<path class="st0" d="M198.9,33.5c0,44.2,0,88,0,131.9c-10.7,0-21.2,0-32,0c0-43.9,0-87.7,0-131.8c-3.9-0.2-7.7-0.1-11.4-0.1
		c-3.7,0-7.5,0-11.2,0c-3.8,0-7.6,0-11.4,0c-3.7,0-7.4,0-11.1,0c-0.4-1.6-0.5-27.1-0.1-29.1c40.7,0,81.4,0,122.1,0
		c0.4,1.4,0.4,26.8,0.1,29C229,33.5,214.1,33.5,198.9,33.5z"/>
	<g>
		<path class="st0" d="M840.5,21.9c-5.1,0-9.1-4.1-9-9.2c0.1-5,4.1-9,9.1-9c4.9,0,9,4.1,9.1,9C849.7,17.8,845.6,21.9,840.5,21.9z
			 M840.6,20.4c4.2,0,7.6-3.5,7.6-7.7c-0.1-4.1-3.5-7.5-7.6-7.4c-4.1,0-7.5,3.4-7.6,7.5C832.9,17,836.4,20.4,840.6,20.4z"/>
		<path class="st0" d="M845,17.9c-1.2,0.4-1.9,0.1-2.4-0.9c-0.6-1.2-1.4-2.2-2.1-3.4c-0.5,0-1,0-1.7,0c0,1.4,0,2.8,0,4.3
			c-0.6,0-1.1,0-1.6,0c0-3.4,0-6.8,0-10.4c1.8-0.1,3.6-0.2,5.4,0.1c1.5,0.2,2.2,1.1,2.3,2.4c0.2,1.4-0.4,2.5-1.7,3.1
			c-0.2,0.1-0.5,0.2-0.9,0.4C843.2,15.1,844,16.4,845,17.9z M838.9,12.2c0,0,2.3,0.1,3.3-0.1c0.8-0.2,1-0.9,0.9-1.6
			c0-0.7-0.3-1.3-1.1-1.3C841,9,838.9,9,838.9,9V12.2z"/>
	</g>
</g>
</svg>
