<?xml version="1.0" encoding="utf-8"?>
<!-- Generator: Adobe Illustrator 21.0.0, SVG Export Plug-In . SVG Version: 6.00 Build 0)  -->
<svg version="1.1" baseProfile="basic" id="Слой_1"
	 xmlns="http://www.w3.org/2000/svg" xmlns:xlink="http://www.w3.org/1999/xlink" x="0px" y="0px" viewBox="0 0 170.1 170.1"
	 xml:space="preserve" height="80px">
<style type="text/css">
	.st0{fill:#FFFFFF;}
</style>
<g>
	<path class="st0" d="M-0.2,84.5C-1,41,34.4-0.5,84.7-0.6c47.5-0.1,85.2,38.1,85.1,85.2c-0.1,46.8-37.6,84.9-85.1,84.9
		C34.4,169.5-1,127.9-0.2,84.5z M84.6,141.2c31.3,0,56.7-25.3,56.8-56.6c0-31.4-25.3-56.7-56.7-56.8C53.3,27.8,28,53.1,28,84.5
		C27.9,115.8,53.3,141.1,84.6,141.2z"/>
	<path class="st0" d="M55.5,84.4c0-16.1,13.1-29.1,29.2-29.1c16.1,0,29.1,13.1,29.1,29.3c0,16.1-13.2,29.1-29.3,29.1
		C68.5,113.6,55.5,100.6,55.5,84.4z"/>
</g>
</svg>
