<?xml version="1.0" encoding="utf-8"?>
<!-- Generator: Adobe Illustrator 21.0.0, SVG Export Plug-In . SVG Version: 6.00 Build 0)  -->
<svg version="1.1" baseProfile="basic" id="Слой_1"
	 xmlns="http://www.w3.org/2000/svg" xmlns:xlink="http://www.w3.org/1999/xlink" x="0px" y="0px" viewBox="0 0 201.9 170.1"
	 xml:space="preserve" height="80px">
<style type="text/css">
	.st0{fill:#FFFFFF;}
</style>
<g>
	<path class="st0" d="M201.9,138.8c-0.3-5.5-2.4-10.2-7.3-13.2c-3.5-2.2-7.5-3.2-11.5-3.5c-3.9-0.3-7.9-0.1-11.8-0.3
		c-1.6-0.1-3.3-0.4-4.9-1c-1.7-0.6-2.1-2.1-1.1-3.5c0.7-0.9,1.8-1.7,2.9-2.2c3.9-1.7,8-1.6,12-0.5c1,0.3,1.7,0,2.3-0.7
		c0.4-0.5,0.9-1.1,1-1.8c0.3-1.9,0.4-3.7,0.7-5.8c2.9-0.7,5.8-2,8.1-4.2c6.5-6.1,8.5-13.8,7.5-22.4c-0.6-5.1-2.5-9.9-5-14.4
		c-3.4-6.2-7.7-11.7-12.7-16.6c-2-2-3.9-2-6-0.1c-1,0.9-1.9,1.9-2.8,2.8c-2.1,2.3-2.2,4.2-0.1,6.5c1.5,1.7,3.1,3.3,4.5,5.1
		c3.1,3.7,6.1,7.5,7.6,12.2c1,3.1,1.2,6.3-0.1,9.4c-1.1,2.6-3.2,3.5-5.7,2.3c-1.2-0.6-2.4-1.5-3.1-2.5c-1.6-2.5-3-5-4.2-7.7
		c-1.1-2.5-1.8-5.2-2.6-7.9c-0.7-2.5-3.3-4.4-5.8-2.9c-0.9,0.5-2,0.8-3.3,1.2c0.3-0.6,0.5-1,0.7-1.3c3.7-6.6,7.4-13.2,11.1-19.7
		c2.2-4,2-7.7-0.7-11.4c-7.4-10.2-16.2-18.8-27-25.4c-6.9-4.3-14.3-7.6-22.5-8.8c-9.9-1.4-19,1-26.6,7.7c-6.4,5.7-9.9,12.8-10,21.5
		C85.5,35,87,40,89.6,44.8c0.9,1.6,0.9,2.2-0.6,3.4c-1.2,1-2.5,1.9-3.8,2.8c-5.1,3.6-10.5,6.8-16.7,8.4c-2,0.5-4.1,0.9-6.1,1.4
		c-2.8,0.7-3.9,2.2-3.1,4.9c0.7,2.7,1.6,5.5,2.7,8.1c1.6,4.3,3.8,8.2,7.1,11.4c2,1.9,4.3,3,7.1,2.4c2.2-0.5,4.4-1.1,6.5-1.9
		c8.6-3.5,16.4-8.4,24.1-13.4c1.5-0.9,3.2-1.7,4.9-2.2c2.4-0.7,4,0.6,3.6,3.1c-0.3,1.9-0.9,3.9-1.9,5.5c-2.8,4.8-5.9,9.5-8.8,14.3
		c-2.7,4.3-1.9,6.8,2.7,8.7c5.1,2.1,10.3,4.1,15.4,6.2c3.6,1.4,6.4,1,9.2-2.1c7.1-7.6,13.3-15.8,19.1-24.4c1.1-1.6,2.1-3.2,3.3-5
		c2.8,10,7.5,18.7,14.8,26c-10.1,1.7-17.9,6.3-21.4,16.4c-1-0.2-2-0.5-2.9-0.7c-1.5-0.4-2.7-0.1-3.7,1.1c-1.2,1.5-2.5,3-3.8,4.5
		c-2.3,2.6-4.6,5.2-7,7.7c-1.1,1.2-1.9,1-2.6-0.5c-2.5-5.3-5.1-10.5-7.6-15.8c-0.7-1.4-1.3-1.8-2.9-1.5c-2.8,0.5-5.5,1-8.4,1.5
		c-1.6-11.5-8.2-19.1-19.1-22.6c-11-3.6-20.7-0.3-28.9,7.1c-1.5-3.3-2.9-6.6-4.6-9.8c-1.9-3.6-3.6-4-7.2-2.3
		c-0.3,0.1-0.5,0.2-0.8,0.4C35.9,94.3,23,99.2,9.7,103c-2.6,0.7-5.2,1.5-7.7,2.4c-1.8,0.7-2.3,1.9-1.9,3.8c0.1,0.7,0.3,1.3,0.5,2
		c1.3,4.4,2.5,8.9,3.9,13.2c0.7,2.3,2,2.8,4.4,2.3c0.3-0.1,0.7-0.2,1-0.3c3.4-1.1,6.7-2.2,10.1-3.3c3.4-1.1,4.7-0.5,6.1,2.7
		c0.2,0.4,0.3,0.7,0.4,1.1c3.2,8.7,7.1,17.1,11.3,25.3c1.4,2.8,2.9,5.5,4.5,8.2c1.2,2.1,3,2.6,5.1,1.5c0.7-0.3,1.4-0.8,2.1-1.2
		c3.6-2.3,7.2-4.5,10.8-6.9c1.7-1.1,1.9-2,1.2-3.9c-0.4-0.9-0.8-1.7-1.3-2.5c-1.8-3-3.7-6-5.5-9.1c-4.2-7.3-8-14.9-10.7-22.9
		c-0.7-2.2-0.5-2.8,1.4-4.1c3.9-2.5,7.8-5.1,11.7-7.6c0.2-0.2,0.5-0.2,0.9-0.4c-5.3,8.1-6.9,16.7-3.2,25.6
		c3.8,9.2,10.6,15,20.6,16.9c5.5,1,10.8,0.3,15.9-2c7.7-3.5,12.9-9.4,16.2-17.1c0.1-0.3,0.3-0.6,0.6-1.1c2.6,5.8,5.2,11.4,7.6,17.1
		c0.3,0.8,0.1,2.1-0.4,2.9c-0.8,1.2-1.8,2.5-2.9,3.3c-3,2.2-6.2,4.2-9.3,6.2c-1.6,1-2,1.4-1.2,3.2c1.7,4.1,4.3,7.6,7.8,10.3
		c1.6,1.3,3.4,1.6,5.4,0.7c3.3-1.4,5.9-3.6,8.6-6c9.2-8.2,17.3-17.4,24.9-27c0.5-0.6,0.9-1.2,1.4-1.8c2.6,3.1,6,4.8,9.8,5.5
		c3.3,0.6,6.6,0.9,9.9,1.3c1.8,0.2,3.7,0.1,5.3,1.1c1.5,1,1.9,2.7,0.8,4.1c-0.6,0.7-1.4,1.4-2.3,1.8c-2.8,1.2-5.7,1.8-8.7,1.2
		c-2-0.4-4-1-6-1.7c-1.3-0.5-2.2-0.2-2.6,0.9c-0.7,1.9-1.5,3.9-1.7,5.8c-0.4,4,0.5,5.3,4.2,7c3.4,1.5,7,2.2,10.7,2.4
		c6.9,0.3,13.5-1.1,19.6-4.4C197.2,155.3,202.4,148.8,201.9,138.8z M146.7,47.5c-2.2,0.5-4.4,0.7-6.6,1.1c-1.4,0.2-2.8,0.3-4.2,0.6
		c-1.5,0.3-2.4,1.3-3.1,2.6c-1.4,2.5-2.7,5-4.1,7.5c-0.2,0.4-0.4,0.8-0.7,1.1c-0.9,1.2-1.9,1.2-2.6-0.1c-0.9-1.8-1.6-3.6-2.4-5.5
		c-0.5-1.2-1-2.4-1.5-3.7c-0.7-1.5-1.8-2.4-3.5-2.5c-3.4-0.3-6.9-0.6-10.3-1c-0.6-0.1-1.5-0.6-1.7-1.1c-0.1-0.5,0.4-1.4,0.8-1.8
		c2.1-2.1,4.3-4.2,6.5-6.1c2-1.7,2.5-3.7,1.9-6.2c-0.6-2.6-1.1-5.3-1.5-8c-0.1-0.8,0.1-1.9,0.5-2.3c0.5-0.4,1.7-0.1,2.4,0.2
		c2.9,1.4,5.7,2.9,8.5,4.4c1.5,0.8,2.9,0.7,4.3-0.1c2.7-1.5,5.5-2.9,8.3-4.2c1.7-0.8,2.4-0.2,2.4,1.8c-0.4,2.6-0.7,5.4-1.2,8.1
		c-0.4,2.1,0.1,3.8,1.6,5.4c2.1,2,4.1,4.2,6.1,6.3c0.3,0.3,0.6,0.6,0.9,0.9C148.6,46,148.2,47.2,146.7,47.5z M85.3,123.4
		c-0.2,1.7-0.7,3.3-1.4,4.9c-1.5,3.2-4.9,4.2-7.9,2.5c-3.3-1.8-5.1-4.8-6.1-8.3c-0.8-3-0.9-6.1,0.4-9c1.6-3.8,5-4.8,8.4-2.6
		C82.6,113.3,85.9,118.2,85.3,123.4z"/>
	<path class="st0" d="M185.1,116.2c0,1.7,1.3,3,2.9,3c1.6,0,3-1.3,3-3c0-1.6-1.3-3-3-3C186.4,113.3,185.1,114.6,185.1,116.2z
		 M190.5,116.2c0,1.4-1.1,2.5-2.5,2.5c-1.4,0-2.5-1.1-2.5-2.5c0-1.3,1.1-2.5,2.5-2.5C189.3,113.8,190.5,114.9,190.5,116.2z"/>
	<path class="st0" d="M186.9,114.6c0,1.2,0,2.3,0,3.4c0.2,0,0.3,0,0.5,0c0-0.5,0-0.9,0-1.4c0.2,0,0.4,0,0.5,0
		c0.2,0.4,0.5,0.7,0.7,1.1c0.2,0.3,0.4,0.4,0.8,0.3c-0.3-0.5-0.6-0.9-0.9-1.4c0.1-0.1,0.2-0.1,0.3-0.1c0.4-0.2,0.6-0.6,0.6-1
		c-0.1-0.4-0.3-0.7-0.8-0.8C188.1,114.5,187.5,114.5,186.9,114.6z M188.9,115.5c0,0.2,0,0.5-0.3,0.5c-0.3,0.1-1.1,0-1.1,0v-1
		c0,0,0.7,0,1,0C188.8,115.1,188.9,115.2,188.9,115.5z"/>
</g>
</svg>
