<?xml version="1.0" encoding="utf-8"?>
<!-- Generator: Adobe Illustrator 21.0.0, SVG Export Plug-In . SVG Version: 6.00 Build 0)  -->
<svg version="1.1" baseProfile="basic" id="Слой_1"
	 xmlns="http://www.w3.org/2000/svg" xmlns:xlink="http://www.w3.org/1999/xlink" x="0px" y="0px" viewBox="0 0 90.6 60"
	 xml:space="preserve" height="80px">
<style type="text/css">
	.st0{fill:#FFFFFF;}
</style>
<g>
	<path class="st0" d="M71.6,48.6c-0.8,0.2-1.3,0.9-1.4,1.7c0,1.1,0.8,2,1.9,2c1,0,1.9-0.8,1.9-1.9C73.9,49.2,72.8,48.2,71.6,48.6z
		 M72.1,52c-0.8,0-1.6-0.7-1.6-1.5c0-0.9,0.7-1.6,1.6-1.6s1.6,0.7,1.6,1.5C73.6,51.3,72.9,52,72.1,52z"/>
	<path class="st0" d="M73,49.9c0-0.3-0.2-0.5-0.5-0.5c-0.4,0-0.7,0-1.1,0v2.1h0.3v-0.9h0.3c0.1,0.2,0.3,0.4,0.4,0.7
		c0.1,0.2,0.2,0.3,0.5,0.2c-0.2-0.3-0.4-0.6-0.5-0.9c0.2-0.1,0.2-0.1,0.3-0.2C72.9,50.3,73,50.1,73,49.9z M72.4,50.3
		c-0.2,0-0.7,0-0.7,0v-0.7c0,0,0.4,0,0.6,0c0.2,0,0.2,0.1,0.2,0.3C72.6,50.1,72.6,50.2,72.4,50.3z"/>
	<path class="st0" d="M90.3,26.7c-0.6-4-2.2-7.5-4.6-10.7c-3.5-4.7-8-8.1-13.2-10.7c-7-3.5-14.4-5.1-22.2-5.3
		c-4.9-0.1-9.8,0.3-14.6,1.4c-4.9,1.1-9.6,2.7-13.9,5.2c-4.3,2.5-7.9,5.7-10.7,9.8c-0.2,0.3-0.3,0.8-0.9,0.6c0,0-0.1,0.1-0.2,0.1
		c-0.4,0.4-1,0.5-1.6,0.6c-0.1,0-0.3,0-0.4,0.1c-0.4,0.6-0.9,0.9-1.6,0.9c0,1.4-1.1,1.4-2.1,1.6C4.8,21.7,4,22.2,3,22.5
		c0.4,0.7,0.3,1.5,0.1,2.2C3,25,3,25.2,3.1,25.5c0.2,0.4,0.3,0.9,0.2,1.3c-0.1,0.4,0,0.7,0.3,1c0.1,0.2,0.2,0.3,0.4,0.5
		c-0.1,0.1-0.2,0.1-0.2,0.2C0.9,31-0.3,34,0.1,37.8c0.2,1.5,1.1,2.6,2.5,2.8c0.5,0.1,1.1,0,1.5,0C4.6,41.9,5,43,5.5,44.1
		c1.3,2.6,3.3,4.6,5.7,6.1c1.1,0.7,1.7,1.6,2,2.9c0.4,1.9,1.9,2.7,3.4,3.7c0.4,0.2,0.6,0,0.7-0.4c0-0.1,0-0.3,0-0.4
		c-0.2-1-0.5-1.9-0.7-2.9c-0.1-0.6-0.3-1.2-0.4-2c0.5,0.1,0.8,0.2,1.2,0.3c1.4,0.5,2.8,1.2,4.2,1.6c0.8,0.3,1.6,0.3,2.4,0.7
		c7,3.6,14.5,5.5,22.3,6.1C51.1,60.2,56,60,60.8,59c6.7-1.4,13-3.9,18.4-8.1c4.1-3.2,7.4-7,9.5-11.8C90.4,35.1,91,31,90.3,26.7z
		 M11.1,17.5c0.4,0.3,0.9,0.4,0.9,1c-0.8-0.2-1.5-0.4-2.3-0.6C10.1,17.5,10.5,17.1,11.1,17.5z M11.8,17.3c0.5,0.1,1.1,0.2,1.6,0.3
		c0,0.1,0,0.2,0,0.2C12.7,18.1,12.3,17.5,11.8,17.3z M8.4,18.2c0.1-0.1,0.4-0.1,0.6-0.1c0.5-0.3,2.3,0.2,2.6,0.7
		c0.1,0.1,0.1,0.3,0.1,0.4c-0.9-0.4-1.7-0.7-2.6-1c0.5,0.3,1,0.6,1.5,0.9c0.2,0.1,0.3,0.4,0.5,0.7c-1.1-0.5-2.3-0.6-3.4-0.8
		C7.8,18.7,8.1,18.4,8.4,18.2z M7.5,18.9C7.5,18.9,7.5,18.9,7.5,18.9c0.6,0.2,1.3,0.3,1.9,0.5c0.4,0.1,0.8,0.3,1.3,0.5
		c-0.2,0.2-0.3,0.4-0.3,0.5c-1.1-0.5-2.1-1-3.1-1.4C7.3,19,7.4,19,7.5,18.9z M7,19c0.8,0.5,1.6,0.9,2.4,1.4c0.1,0,0.1,0.1,0.2,0.1
		c-1.1-0.1-2.2-0.3-3.3-0.4C6.5,19.9,6.7,19.5,7,19z M5.8,20.4c0.8,0,1.6,0.1,2.4,0.2c0.6,0.1,1.1,0.3,1.7,0.5
		c-0.2,0.5-0.4,0.5-0.8,0.4c-1.2-0.4-2.4-0.7-3.7-0.7C5.3,20.2,5.7,20.4,5.8,20.4z M5,20.6c0.1,0,0.3,0.1,0.4,0.1c0,0,0,0,0,0
		c0.7,0.3,1.3,0.6,2,0.9c0.2,0.1,0.4,0.3,0.6,0.6c-1.2,0-2.5,0-3.6,0C4.6,21.7,4.8,21.2,5,20.6z M3.5,22.8c0-0.1,0.1-0.2,0.2-0.3
		c0.1-0.1,0.2-0.1,0.4-0.1c1.2,0,2.3,0,3.5,0c0.1,0,0.3,0.1,0.4,0.1c0.3,0.1,0.4,0.3,0.2,0.5c-1.3-0.2-2.6-0.3-3.9-0.5
		c0,0,0,0.1,0,0.1c0.4,0.1,0.9,0.2,1.3,0.4c0.2,0.1,0.5,0.2,0.7,0.4c0.1,0.1,0.3,0.4,0.2,0.5c-0.1,0.2-0.4,0.3-0.6,0.3
		c-0.8,0.1-1.6,0.1-2.4,0.2C3.5,24,3.5,23.4,3.5,22.8z M3.3,25.2c0-0.1,0.3-0.4,0.4-0.4c0.8-0.1,1.6-0.2,2.4-0.2
		c0.3,0,0.6,0.1,0.9,0.1c-0.1,0.4-0.2,0.5-0.6,0.4c-0.8-0.2-1.6-0.2-2.4-0.3c0,0,0,0.1,0,0.1C4.4,25,4.8,25,5.3,25.1
		c0.2,0,0.3,0.2,0.4,0.3c-0.1,0.1-0.2,0.3-0.4,0.4c-0.5,0.3-1.1,0.5-1.6,0.7C3.6,26.1,3.4,25.7,3.3,25.2z M6.3,26
		c-0.1,0.1-0.1,0.2-0.2,0.2c-0.8,0.2-1.6,0.4-2.4,0.7c0.8-0.5,1.5-0.9,2.4-1C6.1,25.8,6.2,25.9,6.3,26z M3.5,27.1
		C4,27,4.4,26.9,4.8,26.9c0.1,0,0.2,0.1,0.3,0.2c0,0.1,0,0.2-0.1,0.3c-0.3,0.3-0.5,0.5-0.9,0.8C3.9,27.8,3.7,27.5,3.5,27.1z M2.7,40
		c-0.6-0.1-0.7-0.2-0.6-0.7c0.1-0.5,0.3-0.9,0.4-1.4c0,0,0.1,0,0.1,0C2.7,38.6,2.7,39.3,2.7,40z M1.9,38.1C1.9,38,2,38,2.2,37.8
		C2.1,38.4,2,39,1.9,39.5c-0.7-0.2-0.3-0.7-0.3-1c-0.1,0.1-0.2,0.3-0.4,0.4c0-0.6,0.7-1.7,1.5-2.3C2.4,37.2,2.1,37.6,1.9,38.1z
		 M3.4,39.8C3.4,40,3.2,40,3,40.1C3,40,2.9,39.8,2.9,39.7c0-0.6,0-1.2,0-1.8c0.1,0,0.2,0,0.2,0c0.1,0.5,0.3,1,0.4,1.5
		C3.6,39.5,3.5,39.7,3.4,39.8z M3.7,39.6c0-0.6,0.1-1.2,0.1-1.9C4.1,38.6,4,39.5,3.7,39.6z M4.2,35.4c0-0.3-0.1-0.4-0.1-0.6
		C2.7,36,1.5,37.3,0.8,39c-1.5-3,0.2-9.3,4.8-11.3c-0.1,0.4-0.2,0.7-0.6,1c-2.6,1.9-4,4.6-4.3,7.8c0,0.3,0,0.6-0.1,1.1
		c1-1.3,2.3-2.1,3.5-3c0.2-0.1,0.2-0.4,0.4-0.7C4.4,34.4,4.3,34.8,4.2,35.4z M4.5,30.7C4,31,3.4,31.3,2.7,31.6
		C3.1,30.8,3.7,30.5,4.5,30.7z M1.2,35.2c0,0-0.1,0-0.1,0c0.1-0.2,0.1-0.6,0.3-0.7c0.9-0.6,1.8-1.1,2.7-1.6c0,0,0.1,0,0.1,0
		c0,0,0,0.1,0.1,0.1C3.2,33.7,2.2,34.4,1.2,35.2z M4.1,33.8C4,34,4,34.3,3.8,34.4c-0.9,0.8-1.8,1.5-2.8,2.3c0,0-0.1,0-0.3,0.2
		c0.1-0.4,0.1-0.8,0.2-1c0.8-0.9,1.9-1.5,2.9-2.1C4,33.7,4.1,33.8,4.1,33.8z M4,32.5c-0.8,0.5-1.7,0.9-2.6,1.4
		C1.6,33.5,1.8,33.2,2,33c0.7-0.4,1.5-0.8,2.2-1.1C4.3,31.9,4.4,32,4.4,32C4.3,32.2,4.2,32.4,4,32.5z M2.2,32.6
		c0-0.5,1.6-1.3,2.2-1.3c0,0.1,0.1,0.1,0.1,0.2C3.8,31.8,3,32.2,2.2,32.6z M4.9,31.8C5,31,5.1,30.3,5.2,29.6c0,0-0.1-0.1-0.2-0.1
		c0.1-0.2,0.4-0.3,0.4-0.5c1.4-4.3,4.2-7.6,7.8-10.2c2.9-2,6.1-3.2,9.5-3.9c2.3-0.5,4.6-0.6,6.9-0.5c0.7,0,1.5,0.1,2.2,0.2
		c-0.5,0.3-1.1,0.4-1.7,0.4c-4.4-0.2-8.7,0.5-12.7,2.2C11,19.9,6.9,24.8,5.1,31.5C5,31.6,5,31.7,5,31.8C4.9,31.8,4.9,31.8,4.9,31.8z
		 M7,30.9c0.1,0.3,0.2,0.5,0.4,0.9c-0.5-0.2-0.5-0.2-0.5-0.8C6.9,31,6.9,30.9,7,30.9z M6.9,30.1C7,30,7.1,30,7.2,30
		c0.1,0.3,0.2,0.5,0.2,0.8c-0.1,0-0.2,0.1-0.3,0.1C7.1,30.6,7,30.3,6.9,30.1z M14.7,52.8c0.4,0.8,0.8,1.7,1.3,2.7
		C14.8,54.9,14.5,53.9,14.7,52.8z M21.8,52.4c-1.3-0.3-2.5-0.7-3.7-1.3c-0.4-0.2-0.7-0.5-1-0.7c-0.2-0.1-0.4-0.2-0.6-0.2
		c-0.4-0.1-0.8-0.1-1.3-0.1c-0.1-0.4-0.2-0.8-0.3-1.3c-0.1,0.7-0.1,1.3-0.1,2c0.7-0.1,0.9,0.4,1.1,0.9c0.3,1,0.7,1.9,1,2.9
		c0,0.1,0,0.3,0,0.5c-0.1-0.2-0.1-0.4-0.2-0.6c-0.3-0.6-0.6-1.3-1.1-1.9c-0.6-0.8-1.1-1.7-1.2-2.8c0-0.3-0.1-0.3-0.6-0.1
		c0.5,1.1,0.8,2.3,1.7,3.3c0.8,0.8,1.1,1.9,1.3,2.9c0,0-0.1,0.1-0.1,0.1c-0.1-0.1-0.3-0.1-0.3-0.3c-0.7-1.3-1.4-2.5-2-3.8
		c-0.1-0.3-0.3-0.5-0.4-0.8c0.2,0.9,0.4,1.8,0.6,2.7c0,0-0.1,0-0.1,0c-0.3-0.8-0.6-1.7-0.8-2.5c-0.1-0.2-0.1-0.3-0.2-0.5
		c-0.1-0.1-0.2-0.2-0.4-0.3c-0.1-0.1-0.2,0-0.3-0.1c-1.3-1-2.7-2-4-3.1c-0.1-0.1-0.2-0.2-0.3-0.4c0.2,0,0.3,0,0.4-0.1
		c0.4-0.1,0.5-0.4,0.5-0.7c0-0.3-0.1-0.6-0.6-0.6c-0.2,0-0.5-0.3-0.7-0.5c0,0.1,0,0.2,0,0.4c-0.3-0.2-0.5-0.5-0.8-0.7
		c0.1-0.1,0.2-0.2,0.2-0.3C7,44.6,6.6,44.4,6.3,44c-0.2-0.3-0.2-0.8-0.3-1.2c-0.1-0.3-0.1-0.7-0.2-1.1c0.7,0.3,0.9,0.7,1.1,1.2
		c0.2,0.5,0.3,1.1,0.8,1.4c0.5,0.3,1,0.5,1.6,0.9c-0.3-0.5-0.2-1-0.7-1.5c-0.5-0.5-0.8-1.1-1.3-1.8c0,0.3-0.1,0.4-0.1,0.6
		c-0.3-0.2-0.6-0.3-0.4-0.8c0.1-0.2-0.3-0.6-0.4-0.8c0,0-0.1,0-0.1,0.1c0,0.2,0.1,0.3,0.1,0.5c-0.3,0.1-0.7-0.3-0.7-0.7
		c0.1-0.4-0.1-0.7-0.3-0.9c-0.2-0.2-0.4-0.4-0.2-0.7c0-0.1-0.1-0.2-0.1-0.4c0-0.1,0-0.3,0.1-0.4c0-1.1-0.5-2.1,0.2-3.3
		c0.1,0.2,0.2,0.4,0.3,0.5c0-0.8,0-1.6,0-2.4c0.3,0.1,0.6,0.3,0.8,0.4c0.1,0,0.1,0.3,0,0.3c-0.1,0.1-0.2,0.1-0.3,0.1
		c0,0.3,0.6,0.5,0.3,1c0.4,0.7,0.4,0.7-0.2,0.9c0.1,0.8,0.8,1.8,1.3,1.7C7.4,37.6,7.2,37.3,7,37c-0.1-0.1,0-0.3,0-0.4
		c0.1,0,0.3,0,0.4,0.1c0.1,0,0.2,0.2,0.3,0.2c0.5,0,1.1,0,1.5,0.4c0-0.1,0-0.2,0-0.3c0.2,0,0.3,0,0.4-0.1c-0.1-0.4-0.2-0.8-0.3-1.3
		c-0.3,0.1-0.5,0-0.6-0.4c-0.2-0.4-0.3-0.8-0.7-1.1c-0.4-0.3-0.8-0.6-1.1-0.9c-0.1-0.1-0.2-0.3-0.3-0.5c-0.1,0.1-0.1,0.3-0.2,0.4
		c-0.4-0.7-0.4-1.7,0-2.3c0.2,0.3,0.3,0.5,0.4,0.8c0.3,0.8,0.6,1.5,1.4,1.9c0.1,0.1,0.2,0.3,0.3,0.4c0.2,0.5,0.4,1,1.1,1.2
		c-0.1-0.3-0.1-0.6-0.2-1c0.7,0.5,1.4,0.7,2.2,0.7c-0.3-0.2-0.6-0.4-0.8-0.6c-0.4-0.3-0.5-0.7-0.3-1.2c0.1-0.1-0.1-0.4-0.1-0.5
		c0.1-0.6-0.2-0.9-0.7-1.3C9,30.8,9,30.6,9.7,30.4C9.5,30,9.3,29.7,9,29.2c-0.1,0.5-0.2,0.9-0.2,1.4c-0.3,0-0.6,0-0.7-0.5
		c-0.1-0.3-0.5-0.5-0.7-0.7C6.9,29,6.8,28.4,7,27.8c0.4,0.5,0.4,1.3,1.1,1.6C8.1,29.2,8,29,7.9,28.8c0.2,0.1,0.4,0.1,0.6,0.2
		c-0.1-0.4-0.1-0.8-0.2-1.2c-0.1-0.4,0.1-0.4,0.7-0.4c-0.1-0.2-0.3-0.4-0.4-0.6c-0.2-0.3-0.2-0.5,0.1-0.8c0.3,0.3,0.5,0.6,0.8,0.9
		c0,0,0,0,0.1-0.1c-0.1-0.4-0.3-0.8-0.3-1.1c0-0.4,0.3-0.7,0.5-1.3c0.1,0.5,0.2,0.9,0.4,1.2c0.2,0.4,0.5,0.7,0.8,1
		c0-0.6,0-1.1,0-1.7c0-0.1,0-0.2,0-0.2c0.5-0.5,0.1-1.2,0.3-1.7c0.1-0.2,0.1-0.3,0.2-0.6c0.1,0.3,0.2,0.5,0.3,0.7
		c0.1-0.2,0.2-0.4,0.4-0.7c0.2,0.5,0.4,0.8,0.2,1.3c-0.1,0.3-0.1,0.7-0.2,1.2c-0.1,0-0.2,0-0.3,0c0,0.8,0,1.5,0.5,2.1
		c0.2,0.2,0.4,0.3,0.1,0.6c0,0,0,0.2,0,0.2c0.3,0.6,1,1,1.5,1c0.6,0.5,1.1,0.9,1.6,1.3c-0.1-0.5-0.2-1-0.3-1.5c0,0,0-0.1,0-0.1
		c0.2-0.7,0.1-1.5,0.1-2.3c-0.1-0.1-0.3-0.3-0.5-0.6c0.3,0,0.5,0.1,0.7,0.1c-0.2-0.3-0.4-0.6-0.5-0.9c-0.4,0-0.7,0.1-1,0.1
		c-0.1,0-0.3-0.2-0.3-0.4c0-0.1,0.1-0.3,0.2-0.4c0.1-0.1,0.2-0.1,0.3-0.1c-0.2-0.2-0.4-0.4-0.7-0.6c-0.1,0.2-0.1,0.3-0.2,0.6
		c-0.2-0.3-0.5-0.5-0.5-0.7c0-0.4,0.1-0.8,0.3-1.2c0.7,1,0.7,1,1.1,0.8c0.1,0.1,0.2,0.3,0.4,0.4c0.1,0.1,0.3,0.2,0.4,0.4
		c0.2-0.4,0.4-0.8,0.6-1.2c0.1,0,0.2,0.1,0.2,0.1c0.7-0.9,1.4-1.8,2.1-2.7c0.2-0.2,0.4-0.4,0.6-0.5c0.9-0.3,1.4-1,1.9-1.6
		c0-0.1,0.1-0.1,0.3-0.2c0,0.5,0,0.8,0,1.2c0,0.5,0.1,0.9,0.1,1.4c0,0.2,0.2,0.3,0.3,0.5c0.1,0,0.1-0.1,0.2-0.1
		c-0.1-0.2-0.2-0.4-0.3-0.6c0-0.2,0-0.5,0-0.6c0.1-0.2,0.3-0.4,0.5-0.7c0.1,0.3,0.2,0.5,0.3,0.7c0,0,0,0,0.1,0c0-0.1,0-0.2,0-0.3
		c0-0.4,0.1-0.7,0.6-0.8c0.2,0,0.4-0.2,0.7-0.4c0,0,0.2,0.1,0.3,0.2c0-0.3,0.1-0.5,0.1-0.7c0.2,0.1,0.4,0.2,0.6,0.4
		c-0.1-1,0.4-1.5,1.1-1.9c0.1-0.1,0.4-0.1,0.5,0c0.9,0.8,1.7,0.4,2.6,0c-0.7-0.2-1.5,0.3-2.3-0.3c0.3-0.1,0.5-0.3,0.7-0.3
		c0.5,0,1.1-0.3,1.6,0.1c0.1,0.1,0.4-0.1,0.6,0c0.2,0,0.4,0.1,0.6,0.1c-0.1,0.2-0.2,0.3-0.3,0.6c0.3,0.2,0.6,0.5,0.8,0.7
		c0.5-0.6,1-1.1,1.5-1.6c0.1,0,0.1,0.1,0.2,0.1c0,0.2,0,0.4-0.1,0.6c-0.1,0.3-0.3,0.5-0.6,0.8c-1.3,1.2-1.7,2.6-1.1,4.2
		c0.1,0.3,0.1,0.6,0.1,0.9c-0.1,1-0.1,2.1,0.5,3c0.1,0.1,0,0.4,0,0.6c-0.2,0.7-0.4,1.5-0.6,2.3c0.3-0.1,0.5-0.1,0.6-0.1
		c0.1-0.2,0.1-0.4,0.2-0.7c0.2,0.3,0.3,0.4,0.4,0.6c-0.1-0.8-0.2-1.7-0.2-2.5c0-1,0.2-2,0.3-3.1c0.1-0.7,0.1-1.4,0.1-2.1
		c0.1-1.6,0.7-3,1.4-4.3c0.4-0.8,1.5-0.8,1.9,0c0.2,0.4,0.3,0.8,0.3,1.2c0,1.6,0,3.3,0,4.9c0,0.3,0.1,0.7,0.2,1
		c0.3,0.6,0.6,1.2,0.9,1.8c-0.2,0.1-0.5,0.3-0.7,0.4c-0.2-0.7-0.4-1.5-0.7-2.2c-0.4-0.8-0.5-1.6-0.5-2.5c0.1-1.2,0-2.4,0-3.5
		c0-0.2,0.1-0.3,0.1-0.5c0-0.1,0-0.3,0.1-0.5c-1,0.4-1.6,1.1-1.9,2c-0.2,0.7-0.3,1.3-0.4,2c-0.1,0.6-0.2,1.2-0.3,1.8
		c-0.2,0.7,0,1.5,0.1,2.3c0.1,0.5,0.3,0.9,0.4,1.4c0.1,0.4,0.1,0.8,0.1,1.2c-0.1,0.5,0.3,0.9,0.8,0.7c0.5-0.2,1.1-0.4,1.6-0.5
		c0.3-0.1,0.6,0,0.8,0c0,0.1,0,0.1,0,0.2c-0.8,0.5-1.6,1-2.5,1.4c-1.1,0.5-2.2,0.7-3.3,1.3c-0.7,0.4-1,0.2-1-0.7
		c0.3-0.1,0.5-0.2,0.8-0.3c0,0,0,0,0-0.1c-0.3,0.1-0.7,0.1-1.1,0.2c0.2,0.5,0.4,0.9,0.7,1.3c0,0.1,0.3,0.1,0.4,0
		c0.9-0.4,1.9-0.8,2.8-1.2c1.3-0.5,2.6-1.2,3.8-2c0.3-0.2,0.6-0.3,0.8-0.4c0.1-0.7,0.9-0.4,1.3-0.8c0,0.1,0.1,0.1,0.1,0.2
		c-0.4,0.3-0.7,0.6-1.1,0.9c0,0,0.1,0.1,0.1,0.1c0.7-0.4,1.3-0.8,2-1.2c0,0,0.1,0.1,0.1,0.1c0,0.1-0.1,0.1-0.1,0.2
		c0.3,0.1,0.6,0.2,0.9,0.3c-0.1,0.1-0.1,0.1-0.1,0.1c-0.7-0.2-1.2,0.2-1.7,0.6c-0.8,0.7-1.7,1.1-2.8,1.2c-0.2,0-0.3,0.1-0.4,0.2
		c-1.9,1.2-3.8,2.3-6,2.9c-0.4,0.1-0.9,0.3-1.1,0.2c-0.4-0.3-0.7,0-1.1,0c0.2,0.1,0.3,0.1,0.5,0.2c0,0.1-0.1,0.2-0.1,0.4
		c1.1-0.4,2.2-0.7,3.4-0.5c0.1,0,0.3-0.1,0.4-0.2c0.9-0.7,1.9-1.1,3-1.4c1.6-0.4,3.1-1.2,4.3-2.3c0.1-0.1,0.2-0.2,0.4-0.2
		c-1.4,2.9-3.8,4.5-6.7,5.6c0.5-0.9,1.2-1.4,2.1-1.6c0-0.1,0-0.1-0.1-0.2c-0.4,0.1-0.9,0-1.2,0.2c-0.6,0.5-1.4,0.6-2.1,0.8
		c-0.1,0-0.1,0-0.3,0.1c0.3,0.1,0.4,0.1,0.5,0.2c-0.3,1.1-1.8,2.2-3,2c0.5-0.9,1.6-1.4,2.2-2.2c-0.9-0.3-1.5-0.1-2.1,0.6
		c-0.7,0.8-1.6,1.6-2.8,1.6c-0.1,0-0.2,0-0.3,0c-0.1,0-0.3-0.1-0.4-0.1c1-0.5,2.1-1,3.1-1.5c0,0,0-0.1,0-0.1c-0.5,0-1,0.1-1.3,0.1
		c-0.1,0.3-0.1,0.5-0.2,0.6c-0.5,0.2-1,0.4-1.6,0.6c0,0-0.1-0.1-0.2-0.2c-0.8,0.4-1.7,0.4-2.5,0.2c-0.3-0.1-0.5-0.3-0.8-0.4
		c0-0.1,0-0.1,0.1-0.2c0.4,0.1,0.7,0.1,1.1,0.2c0.2,0,0.4,0,0.5,0c0.7-0.2,1.3-0.5,2-0.7c0.2-0.1,0.3-0.1,0.5-0.2
		c0,0,0.1,0.1,0.1,0.1c-0.2,0.3-0.3,0.5-0.5,0.8c0.4-0.3,0.8-0.6,1.2-0.8c-0.8-0.1-1.2-0.7-1.5-1.3c-0.1-0.1-0.2-0.2-0.3-0.3
		c-0.1,0.1-0.1,0.3-0.2,0.4c-0.1,0.1-0.2,0.2-0.3,0.2c-0.8,0.1-1.6,0.1-2.4,0.2c-0.5,0-0.9-0.1-1.3-0.4c-1.4-1.1-2.2-2.6-2.8-4.3
		c-0.2-0.5-0.3-1.1-0.4-1.7c0.1,0.1,0.2,0.3,0.3,0.5c-0.1-0.8-0.3-1.5-0.2-2.2c0.1,0,0.1,0,0.2,0c0,0.5,0.1,1,0.1,1.6
		c0.1,0,0.1,0,0.2,0c0-0.4-0.1-0.9-0.1-1.3c0-0.1,0.1-0.3,0.1-0.4c0-0.1,0.1-0.2,0.1-0.3c0-0.3,0-0.7,0.1-1c0.1-0.1,0.4-0.2,0.6-0.3
		c0.1-0.4,0.2-0.9,0.3-1.4c0,0,0.1,0,0.1,0c0.2,1.2,0.4,1.8,1,2.8c-0.8,1.4-0.8,2.8-0.5,4.3c0.1,0.6,0.2,1.2,0.4,1.8
		c0.1,0.4,0.4,0.7,0.6,1.1c0,0.1,0.1,0.1,0.1,0.1c0.1,0.2,0.1,0.6,0.3,0.6c0.3,0.1,0.6,0,0.9-0.1c0.1-0.2,0.2-0.4,0.3-0.6
		c0.2,0.3,0.4,0.5,0.6,0.7c0,0,0.1-0.1,0.1-0.1c-0.7-1.5-2.2-2.6-2.6-4.3c0,0-0.1,0-0.1,0c0,0.4,0,0.8,0.2,1.1
		c0.2,0.7,0.5,1.3,0.8,2c0.1,0.2,0,0.3,0.1,0.6c-0.6-0.3-0.8-0.8-0.9-1.3c-0.4-1.4-0.5-2.8-0.5-4.2c0-0.3,0.1-0.6,0.2-0.9
		c0.1-0.2,0.3-0.3,0.5-0.5c0-1.6,0-1.6,0.4-1.9c-0.1-0.3-0.2-0.5-0.3-0.8c-0.1,0.2-0.3,0.3-0.4,0.4c-0.4-0.5-0.3-1.1-0.1-1.2
		c0.1-0.4,0.3-0.7,0.3-1c0-0.2,0-0.4-0.1-0.6c-0.3,0.2-0.7,0.3-0.6,0.8c0,0-0.1,0.1-0.1,0.1c-1.5,0.8-2.5,2.3-3.4,3.7
		c-0.5,0.7-0.2,1.6-0.1,2.4c0.4,2.3,1.4,4.5,2.4,6.6c0.1,0.2,0.4,0.4,0.7,0.7c-0.3,0.1-0.6,0.3-0.9,0.3c-1.7,0.2-3.4,0.3-5,0.9
		c-0.5,0.2-1,0.4-1.2,1.1c0,0.1-0.2,0.2-0.3,0.3c-0.4,0.3-0.8,0.6-1.1,1c-0.5,0.6-0.4,1.1,0.2,1.6c0.1,0.1,0.3,0.2,0.5,0.3
		c0.5,0.3,1.1,0.4,1.5,0.9c0.2,0.2,0.6,0.3,1,0.4c-0.1-0.2-0.2-0.4-0.2-0.5c0-0.1,0-0.1,0.1-0.2c0.3,0.1,0.7,0.1,0.9,0.3
		c1.1,0.6,3,0.5,4-0.3c0.9-0.7,1.7-1.6,2.2-2.7c0-0.1,0.2-0.2,0.3-0.2c0.5,0,0.8-0.4,1.1-0.9c-0.2,0.1-0.4,0.2-0.5,0.2
		c-0.3,0.1-0.4,0.1-0.5-0.3c0-0.1-0.2-0.3-0.3-0.4c-0.1,0-0.3,0-0.4,0.1c-0.3,0.3-0.6,0.7-0.9,1.2c0.4-0.3,0.8-0.5,1.3-0.8
		c0,0,0.1,0.1,0.1,0.1c-0.3,0.7-0.7,1.3-1.2,1.9c-0.8,1-1.6,2-3.2,1.9c0.4-0.9,1.2-1.5,1.8-2.1c-0.8,0.5-1.5,1-2.1,1.8
		c-0.2,0.3-0.4,0.4-0.8,0.3c-0.6-0.2-1.2-0.4-1.6-0.9c-0.4-0.4-0.8-0.8-1.2-1.2c-0.8-1-0.6-1.8,0.6-2.4c0.3-0.1,0.6-0.3,0.9-0.4
		c0.1,0.5-0.4,0.6-0.8,0.9c0.2,0,0.3-0.1,0.5-0.1c-0.3,0.4-0.7,0.7-1,1.1c0,0,0.1,0.1,0.1,0.1c1.6-1.7,3.2-3.2,5.8-2.7
		c-0.2,0.1-0.3,0.2-0.4,0.3C17.1,34,16.1,34.4,15,35c-0.6,0.3-1.3,0.6-1.8,1.1c-0.1,0.1-0.2,0.3-0.2,0.5c0.4-0.3,0.8-0.7,1.2-1
		c0,0,0.1,0.1,0.1,0.1c-0.2,0.3-0.4,0.7-0.7,1c0,0,0,0,0.1,0.1c0.2-0.2,0.4-0.5,0.6-0.7c1.1-1.2,2.5-1.5,3.9-2
		c0.3-0.1,0.6-0.1,0.9-0.1c0.3,0,0.5,0.2,0.4,0.5c-0.1,0.3-0.3,0.5-0.4,0.9c0.3-0.2,0.6-0.4,0.8-0.6c0-0.4-0.1-0.7-0.1-0.9
		c0,0,0.3-0.1,0.5-0.1c0-0.2,0.1-0.5,0.1-0.8c0.1,0.1,0.3,0.1,0.3,0.2c0.3,0.7,0.9,0.8,1.5,0.9c1.3,0.2,2.7,0.5,4,0.7
		c0.5,0.1,1.1,0.1,1.7,0c0.8-0.1,1.7-0.3,2.5-0.6c0.4-0.1,0.8-0.4,1.2-0.6c0,0,0.1,0.1,0.1,0.1c-0.3,0.4-0.5,0.9-0.8,1.2
		c-1.3,1.2-2.6,2.3-4,3.4c-0.2,0.2-0.6,0.2-1,0.3c0,2-0.2,3.9-1.2,5.7c0.3-1.9,0.6-3.7,0.9-5.6c-0.5,0-0.6,0.2-0.7,0.5
		c-0.4,1.3-0.8,2.6-1.2,3.9c-0.1,0.3-0.3,0.5-0.5,0.8c0.4-1,0.7-2.1,1.1-3.1c0,0-0.1,0-0.1,0c-0.6,1.4-1.1,2.9-1.8,4.4
		c1.3-1.3,1.9-3,2.4-4.6c0.1,2-0.6,3.8-1.3,5.6c1.1-0.9,1.6-2.2,2.1-3.5c0,1.5-0.6,2.9-1.3,4.2c0.1,0,0.1,0.1,0.2,0.1
		c0.3-0.6,0.7-1.1,1-1.7c0.8-1.9,1-3.8,1-5.9c0-0.2,0.1-0.5,0.1-0.7c0.1,0,0.1,0,0.2,0c0,0.2,0.1,0.3,0.1,0.5
		c0.2,2.3-0.2,4.6-1.1,6.7c-0.1,0.2-0.2,0.4-0.4,0.6c-0.5,0.7-0.8,0.8-1.6,0.5c-0.8-0.3-1.4-0.9-1.9-1.6c-0.4-0.5-0.8-1-1.2-1.5
		c-0.7-0.8-0.7-0.9,0.1-1.7c0,0.3,0.1,0.5,0.1,0.8c0.3-0.5,0.5-0.9,0.8-1.3c0,0.1,0,0.2,0.1,0.3c0.1-0.3,0.2-0.5,0.3-0.7
		c0.1,0.1,0.2,0.2,0.3,0.3c0.1-0.9,0.7-1.5,1.2-1.2c0.2-0.4,0.4-0.8,0.6-1.2c-0.4,0.2-0.8,0.3-1.1,0.6c-1,0.8-2,1.7-3,2.6
		c-0.4,0.3-0.3,0.7,0.1,1c-0.6,0.3-1.2,0.5-1.8,0.8c-1.1,0.6-2.1,1.2-3.2,1.7c-0.5,0.3-0.4,0.6-0.2,1c0.7-0.7,1.3-1.3,2.2-1.7
		c-0.7,0.8-1.3,1.5-1.8,2.3c-0.3,0.4-0.3,0.4,0,0.9c0.4-0.6,0.8-1.1,1.2-1.7c0.1,0,0.2,0,0.3,0.1c0,0.4,0.1,0.9,0,1.3
		c0,0.3-0.2,0.5,0.1,0.7c0.1,0.1,0,0.4,0.1,0.7c0.3-0.5,0.2-1,0.2-1.5c-0.1-0.7,0.1-1.1,0.7-1.1c-0.1,0.9-0.2,1.7-0.3,2.5
		c0.6,0.2,1.2,0.5,1.9,0.7c2.6,0.8,5.1,0.6,7.7,0.1c0.5-0.1,1-0.3,1.5-0.4c0.2,0,0.4,0,0.7,0.1c-1.7,1.3-5.5,1.3-10.4,0.3
		c1.1,0.3,2.2,0.8,3.4,0.9c1.7,0.1,3.5,0,5.2-0.2c0.6,0,1.2-0.4,1.7-0.6c0.1,0,0.3,0,0.4,0.1c-1.5,0.8-3,1.1-4.7,1.1
		c1.7,0.1,3.3-0.1,4.8-0.9c0.1,0.2,0.2,0.3,0.3,0.5c-4.4,1.5-8.6,1.3-12.6-1.3c0,0-0.1,0.1-0.1,0.1c0.1,0.1,0.2,0.3,0.3,0.4
		c3.7,2.3,7.6,2.5,11.7,1.2c0.2-0.1,0.4-0.1,0.6-0.2c0,0,0,0.1,0.1,0.1c-0.3,0.2-0.6,0.5-1,0.6C26.8,52.8,24.4,53.1,21.8,52.4z
		 M33.8,23.2c-0.2-0.5-0.3-0.9-0.5-1.4c-0.4-1.3,0.1-2.5,0.3-3.7c0-0.1,0.3-0.3,0.4-0.4c0.1,0,0.1,0.1,0.2,0.1c0,0.9,0,1.9,0,2.8
		c0,0.2,0,0.5,0.1,0.7c0.2,0.5,0.4,1.1,0.6,1.6c0.1,0.3,0.1,0.6,0.1,0.9c0,0.3-0.2,0.4-0.5,0.3c-0.3-0.1-0.7,0-1,0
		c-0.3,0-0.6-0.1-0.7-0.4c-0.3-1-0.5-2-0.1-3.1c0.4,1,0.7,2,1.1,2.9c0.1,0,0.1,0,0.2-0.1C33.9,23.4,33.9,23.3,33.8,23.2z M34.4,24.5
		c0,0.1,0,0.1,0,0.2c-0.1,0-0.3,0.1-0.4,0.1c-0.3,0-0.6,0-1,0.1c0-0.1,0-0.3,0-0.5C33.4,24.3,33.9,24.4,34.4,24.5z M33,25
		c0.6,0,1.2,0,1.8,0.2c0.5,0.1,0.8,0,1.1-0.2c0.7-0.4,1.4-0.7,2.2-0.7c-1,1.2-2.6,1.8-5.2,1.5C33,25.6,33,25.3,33,25z M39.2,24.3
		c0.6-0.3,1.1-0.7,1.7-1c0,0,0.1,0.1,0.1,0.1C40.7,24.2,39.9,24.1,39.2,24.3z M42.1,23.7c0,0.5-0.9,1.1-2,1.3
		C40.8,24.6,41.4,24.2,42.1,23.7z M32.3,31.9c-0.1,1-0.9,1.2-1.6,1.5C31.2,32.9,31.3,32,32.3,31.9z M26.7,34
		c0.2-0.1,0.5-0.2,0.7-0.4c0.5-0.4,1-0.8,1.4-1.2c0.3-0.3,0.5-0.4,1-0.3c-0.1,0.2-0.2,0.3-0.3,0.4c-0.3,0.3-0.7,0.6-1,0.9
		C27.8,34,27.8,34,26.7,34z M19,31.4c-0.1,0.1-0.1,0.2-0.2,0.3c-1-1-1.3-2.3-1.8-3.7c0.7,0.9,1.3,1.8,2,2.6c1,1.2,2.3,1.4,3.8,1.3
		c0.3,0,0.5-0.1,0.8-0.2c0.5-0.2,1,0,1.3,0.4C22.3,33.2,20.1,33,19,31.4z M28,39.9c-0.2-0.3-0.4-0.8-0.6-1.2c0.1,0,0.1,0,0.2-0.1
		c1.5,1.4,1.7,2.5,1.2,5.1c0-0.7-0.1-1.3-0.1-1.9C28.7,41.1,28.4,40.5,28,39.9z M27.4,41.4c0.2,0.8,0.4,1.5,0.6,2.2c0,0,0.1,0,0.1,0
		c-0.1-0.6-0.2-1.1-0.3-1.7c-0.1-0.6-0.2-1.1-0.4-1.7c0.1,0,0.2-0.1,0.3-0.1c0.2,0.4,0.4,0.9,0.4,1.3c0.2,1.3,0.3,2.7,0.4,4
		c0.1,0.7-0.1,0.8-0.7,0.7c-0.3,0-0.7-0.1-1-0.1c-0.3-0.1-0.5-0.2-0.4-0.6c0.3-0.7,0.4-1.5,0.7-2.3c0.2,0.4,0.4,0.8,0.5,1.2
		C27.7,43.4,27,42.5,27.4,41.4z M26.5,47.8c0.1-0.1,0.3-0.1,0.4-0.1c0,0.1,0.1,0.2,0.1,0.2c-0.4,0.2-0.8,0.5-1.3,0.6
		c-1.3,0.4-2.6,0.4-3.9,0.3c-1.3-0.1-2.5-0.4-3.8-0.6c-0.1,0-0.1,0-0.2-0.1c0-0.4,0.2-0.4,0.5-0.4c1.2,0,2.5,0.1,3.7,0.1
		c0.6,0,1.2-0.3,1.8-0.4c0.1,0,0.1-0.1,0.2-0.1c0.6,0.2,1.2,0.2,1.8-0.3c0.1-0.1,0.4,0.2,0.8,0.3c-1.4,0.8-2.8,1-4.3,0.9
		C23.8,48.6,25.2,48.5,26.5,47.8z M27.3,48c0.3,0.2,0.5,0.4,0.8,0.7c-0.9,0.6-1.8,0.9-2.8,1c-2.4,0.4-4.7,0.1-6.9-0.6
		c-0.2,0-0.3-0.2-0.4-0.4c0-0.1,0.1-0.1,0.1-0.2c0.4,0.1,0.8,0.1,1.3,0.2c1.9,0.3,3.9,0.5,5.9,0.2C25.9,48.9,26.7,48.7,27.3,48z
		 M18.1,47.2c0-0.4,0.1-0.4,0.4-0.4c0.3,0,0.5,0,0.8-0.1c0.7-0.2,1.4-0.4,2.1-0.7c0.8-0.3,0.8-0.3,1.4,0.5
		C22.2,47.1,20,47.4,18.1,47.2z M23.8,47.1c-1.3,0.6-2.6,0.6-4,0.5c0.8-0.1,1.4-0.2,2.1-0.3c0.4-0.1,0.7-0.2,1-0.3
		C23.2,46.8,23.4,46.7,23.8,47.1z M89.1,31c-0.2,4.6-1.9,8.7-4.6,12.4c-3.5,4.7-8,8-13.2,10.5c-3.7,1.8-7.6,3-11.6,3.7
		c-4.4,0.8-8.9,1-13.4,0.7C41.2,58,36.2,57,31.3,55.3c-1.7-0.6-3.4-1.3-5.1-2c0,0,0-0.1,0-0.1c0.7-0.2,1.3-0.3,2-0.5
		c0.6-0.2,1.2-0.4,1.8-0.6c0.7-0.3,1-0.8,0.5-1.4c-0.4-0.7-1-1.3-1.6-1.8c-0.9-0.8-1.8-1.4-2.8-2.2c0.2-0.1,0.4-0.1,0.5-0.1
		c0.6,0,1.1,0,1.7,0.1c0.4,0,0.5-0.1,0.6-0.5c0.1-0.8,0.2-1.5,0.3-2.3c0.1-0.8,0.1-1.6,0.1-2.3c0-1.1-0.2-2.1-1.2-2.8
		c-0.1-0.1-0.3-0.3-0.4-0.4c1.7-1.5,3.3-3,5-4.5c0.2-0.2,0.2-0.4,0.4-0.7c0.1-0.1,0.2-0.3,0.3-0.3c1.3-0.8,2.7-1.5,3.9-2.4
		c0.5-0.3,0.9-0.9,1.2-1.3c0.5-0.7,1.1-1.5,1.5-2.2c0.4-0.6,0.9-0.7,1.6-0.9c-0.2,0.9-0.3,1.6-0.5,2.4c-0.1,0.7-0.3,1.4-0.4,2
		c-0.1,1-0.6,1.7-1.5,2.2c2,0,3.8,0,5.7,0c-0.1-0.1-0.1-0.1-0.2-0.1c-0.6-0.3-0.9-0.9-0.7-1.5c0.2-1.4,0.5-2.8,0.7-4.2
		c0.1-0.3,0.3-0.3,0.5-0.3c1.7,0,3.2-0.4,4.6-1.3c1-0.6,1.7-1.5,2-2.7c0.3-1.9-0.9-3.4-2.8-3.5c-2.2,0-4.5,0-6.8,0
		c0.2,0.2,0.4,0.3,0.4,0.5c0.1,0.4,0.3,0.8,0.2,1.2c-0.1,0.7-0.3,1.4-0.4,2.1c-0.1,0-0.1,0.1-0.1,0.1c-0.9-0.2-1.7,0.3-2.4,0.8
		c-0.5,0.3-1.1,0.3-1.7,0.4c-0.1,0-0.3,0-0.4,0c-0.9,0.1-0.9,0.1-1.4-0.7c-0.3-0.5-0.6-1.1-0.8-1.6c-0.1-0.2-0.1-0.5-0.1-0.7
		c0-1.5,0.1-3.1,0.1-4.6c0-0.5-0.1-1-0.3-1.5c-0.3-0.9-0.9-1.1-1.8-0.8c-0.5,0.2-0.9,0.2-1.3,0.1c-1.5-0.4-2.9-0.3-4.4-0.3
		c-4,0.2-7.8,1-11.4,2.6c-0.6,0.3-1.3,0.7-1.9,1c-0.1,0.1-0.4,0.1-0.5,0c-0.4-0.1-0.8-0.2-1.2-0.3c0.2-0.3,0.4-0.6,0.6-0.9
		c2.7-3.7,6.2-6.6,10.2-8.8c4.8-2.6,9.9-4.2,15.3-5.1c3.7-0.6,7.4-0.9,11.1-0.8c8.7,0.1,16.9,2,24.4,6.4c4.5,2.6,8.3,5.9,11.1,10.2
		C88,22,89.3,26.3,89.1,31z M44.8,25.5c0.4-2,0.8-3.9,1.2-5.9c0.6,0,1.1-0.1,1.6,0c0.6,0.1,0.9,0.6,1.1,1.1c0.7,2.4-1.2,4.9-3.7,4.8
		C45,25.6,45,25.6,44.8,25.5z"/>
	<path class="st0" d="M15.7,22.5L15.7,22.5C15.8,22.5,15.8,22.5,15.7,22.5z"/>
	<path class="st0" d="M47.4,10.1c1.3-0.6,2.2-1.6,2.5-3c0.5-1.6,0.1-3.4-2.3-3.8c-0.6-0.1-1.2-0.2-1.7-0.2c-1.6,0-3.1,0-4.7,0
		c-0.1,0-0.3,0-0.5,0c0.5,0.6,0.7,1.2,0.5,2c-0.6,2.6-1.1,5.3-1.8,7.9c-0.4,1.7-0.3,3.6-1.8,5c1.4,0,2.8,0,4.1,0
		c1,0,2.1-0.1,3.1-0.2c2.7-0.5,4.7-2.2,4.2-5.4C49,11.3,48.6,10.5,47.4,10.1z M45.1,15.7c-0.4,1.1-1.1,1.6-2.3,1.6
		c-0.3,0-0.5,0-0.8,0c0.5-2.2,0.9-4.2,1.4-6.4c0.5,0,1,0,1.4,0.1c0.6,0.1,0.9,0.5,0.9,1.1C45.7,13.3,45.5,14.5,45.1,15.7z M45.8,9.3
		C45.5,9.8,45,10,44.5,10c-0.3,0-0.6,0-1,0c0.2-0.9,0.3-1.6,0.5-2.4c0.2-1,0.4-2,0.6-2.9c0-0.2,0.3-0.4,0.4-0.4
		c1.1-0.1,1.9,0.2,2,1.5C47.1,7.1,46.7,8.3,45.8,9.3z"/>
	<path class="st0" d="M48.5,39c-0.7-0.3-1.5-0.4-2.3-0.6c-0.7-0.1-1.3-0.7-1.4-1.4c-0.1-2.1,1.5-3.6,3.6-2.9
		c0.9,0.4,1.7,0.9,2.2,1.8c0.1-0.7,0.2-1.2,0.4-1.9c-1.1-0.3-2.1-0.7-3.2-0.9c-1.5-0.3-3-0.3-4.2,0.9c-1,1-1.5,2.2-1.7,3.5
		c-0.1,1,0,1.9,0.9,2.5c0.5,0.4,1.2,0.6,1.8,0.9c0.6,0.3,1.2,0.5,1.8,0.8c0.3,0.2,0.6,0.6,0.7,0.9c0.4,1.7-1.3,3.7-3.1,3.7
		c-1.5,0-2.5-0.8-3.3-1.9c-0.3-0.4-0.5-0.9-0.7-1.3c-0.2,1.2-0.4,2.4-0.5,3.6c0.5,0,0.9-0.1,1.3,0c1.1,0.2,2.2,0.4,3.3,0.6
		c3.1,0.4,6-2.1,6.3-5.2C50.5,40.6,50,39.6,48.5,39z"/>
	<path class="st0" d="M69.3,46.9c1.9,0.7,3.6,0.3,4.6-1.2c1.4-1.9,1.8-4.2,1.7-6.5c-0.1-1.4-1-2.2-2.4-2.2c-0.7,0-1.4,0.2-2.1,0.4
		c-0.2,0-0.3-0.2-0.5-0.3c-0.4-0.4-0.8-0.5-1.3-0.4c-0.7,0.2-1.7,1.6-1.7,2.5c0.1-0.1,0.1-0.2,0.2-0.3c0.2-0.2,0.4-0.3,0.7-0.4
		c0,0.2,0.1,0.5,0,0.7c-0.6,2.8-1.2,5.7-1.8,8.5c-0.3,1.2-0.4,2.5-1.6,3.3c0,0,0,0.1,0,0.1c1.5,0,3,0,4.4,0
		c-0.2-0.4-0.7-0.8-0.7-1.1C68.9,48.9,69.1,47.9,69.3,46.9z M69.7,45.2c0.4-1.7,0.7-3.5,1.1-5.2c0.1-0.2,0.2-0.5,0.3-0.7
		c0.3-0.6,0.8-0.8,1.5-0.7c0.6,0.1,0.6,0.6,0.7,1c0,0.2,0,0.4,0,0.6c-0.2,1.8-0.5,3.6-1.5,5.2c-0.2,0.3-0.4,0.5-0.6,0.7
		c-0.3,0.3-0.7,0.3-1.1,0.1C69.7,46.1,69.5,45.7,69.7,45.2z"/>
	<path class="st0" d="M57.4,45.7c-0.1,0-0.1-0.4-0.1-0.6c0.3-1.5,0.6-3,0.8-4.5c0.1-0.8,0.2-1.7,0.2-2.5c0-0.6-0.5-1.1-1.1-1.1
		c-0.4,0-0.8,0-1.1,0.1c-0.4,0.1-0.9,0.4-1.4,0.6c0.2-1.3,0.5-2.5,0.7-3.7c-1.2,0-2.3,0-3.5,0c0.1,0.2,0.2,0.3,0.3,0.5
		c0.1,0.3,0.3,0.7,0.2,1c-0.6,3.2-1.3,6.4-1.9,9.6c-0.1,0.7-0.2,1.3-0.4,2c0.9,0,1.8,0,2.7,0c0.3-1.5,0.6-2.9,0.9-4.3
		c0.3-1.2,0.5-2.3,0.8-3.5c0.1-0.6,0.5-0.8,0.9-0.7c0.5,0.1,0.5,0.5,0.5,0.9c-0.1,0.6-0.2,1.2-0.3,1.8c-0.2,1.5-0.5,3.1-0.7,4.6
		c-0.1,0.8,0.3,1.2,1,1.4c1.2,0.4,2.4-0.6,2.5-1.7c-0.1,0.1-0.2,0.2-0.3,0.2C57.9,45.8,57.6,45.8,57.4,45.7z"/>
	<path class="st0" d="M53.8,17.3c0.2-0.2,0.3-0.3,0.5-0.5c0.6,0.7,1.2,1.6,2.3,1.2c0.7-0.2,1.2-0.9,1.2-1.5c-0.2,0-0.4,0.1-0.6,0.1
		c0-0.2-0.2-0.5-0.1-0.7c0.4-1.9,0.8-3.8,1.2-5.7c0.2-0.8,0.3-1.5,0.5-2.4c-0.9,0-1.7,0-2.5,0c-0.2,0-0.3,0.1-0.4,0.2
		c-0.3-0.1-0.6-0.3-0.9-0.4c-1.2-0.3-2.3,0-3.1,1c-1.7,2-2.5,4.4-2.3,7.1c0.1,1,0.5,2,1.6,2.4C52.1,18.4,53,18,53.8,17.3z M54.1,9.2
		c0.2-0.3,0.5-0.5,0.7-0.6c0.1-0.1,0.4-0.1,0.5,0c0.1,0.1,0.2,0.4,0.2,0.5c-0.4,2.1-0.8,4.2-1.3,6.3c-0.1,0.3-0.3,0.6-0.5,0.9
		c-0.3,0.3-0.8,0.4-1.2,0.2C52,16.2,52,15.7,52,15C52.3,13,52.9,11,54.1,9.2z"/>
	<path class="st0" d="M65.6,45.5c0.9-1.4,1.4-3,1.4-4.7c0-0.2,0-0.5,0-0.7c-0.1-1.3-0.5-2.5-1.9-3c-1.5-0.5-2.9-0.3-4,0.9
		c-1.9,1.9-2.5,4.3-2.3,6.9c0.1,1.1,0.6,2,1.8,2.4C62.3,47.8,64.6,47.1,65.6,45.5z M64.6,41.4c-0.2,1.2-0.6,2.3-0.9,3.5
		c-0.1,0.3-0.3,0.6-0.5,0.9c-0.3,0.4-0.7,0.7-1.2,0.5c-0.5-0.2-0.8-0.6-0.9-1.1c0-0.2,0-0.4,0-0.6c0.1-1.8,0.5-3.6,1.3-5.3
		c0.2-0.4,0.4-0.7,0.7-1c0.7-0.6,1.5-0.3,1.6,0.5C64.8,39.6,64.7,40.5,64.6,41.4z"/>
	<path class="st0" d="M64.7,25.3c-0.1-1.1-0.3-2.2-1.4-2.8c-1.4-0.8-3.4-0.6-4.6,0.7c-1.8,2-2.5,4.3-2.3,6.9c0.1,1,0.6,1.9,1.6,2.3
		c1.9,0.7,4.3-0.1,5.3-1.7c0.9-1.4,1.4-3,1.3-4.7C64.7,25.8,64.7,25.6,64.7,25.3z M62.4,25.8c-0.1,1.5-0.4,3-1,4.3
		c-0.1,0.3-0.3,0.6-0.6,0.9c-0.3,0.4-0.6,0.6-1.1,0.5c-0.5-0.1-0.8-0.5-0.9-1c-0.1-0.3,0-0.5,0-0.8c0.2-1.8,0.5-3.5,1.3-5.2
		c0.2-0.4,0.4-0.8,0.8-1.1c0.7-0.6,1.5-0.3,1.6,0.6C62.5,24.6,62.4,25.2,62.4,25.8z"/>
	<path class="st0" d="M61.8,17.3c-1.2-0.3-2.2-0.9-2.7-2.1c-0.4,0.4-0.7,0.8-1.1,1.3c0.6,0.4,1.2,0.7,1.8,1.1
		c1.4,0.7,2.8,0.8,4.2,0.1c1.2-0.6,1.8-1.7,1.9-3c0.2-1.1-0.5-1.8-1.3-2.5c-0.8-0.6-1.5-1.3-2.3-1.8c-0.5-0.4-0.5-1.4,0-1.8
		c0.8-0.6,1.8-0.5,2.5,0.4c0.3,0.4,0.5,0.8,0.8,1.3c0.3-0.5,0.5-0.9,0.7-1.3c0-0.1,0-0.3-0.1-0.4c-1.4-1.1-3-1.5-4.7-0.8
		c-1.4,0.6-2.2,2.5-1.8,3.8c0.3,0.9,1.1,1.6,1.9,2.1c0.5,0.3,1,0.6,1.5,1c0.6,0.5,0.7,1.2,0.3,1.9C63.2,17.1,62.5,17.5,61.8,17.3z"
		/>
	<path class="st0" d="M69.4,17.6c-1.2,0-2.5-1-2.9-2.2c-0.4,0.4-0.7,0.8-1.1,1.3c0.8,0.4,1.4,0.9,2.2,1.2c1.6,0.6,3.1,0.6,4.5-0.6
		c1.7-1.4,1.7-3.6-0.1-5c-0.8-0.6-1.5-1.2-2.2-1.8c-0.7-0.6-0.6-1.4,0.1-1.9c0.8-0.5,1.7-0.3,2.4,0.5c0.3,0.4,0.5,0.8,0.8,1.2
		c0.3-0.5,0.6-1,0.9-1.5c-1.4-1.2-2.9-1.7-4.7-1.1c-1.5,0.5-2.5,2.4-2,3.8c0.3,0.9,1,1.5,1.8,2.1c0.6,0.4,1.1,0.8,1.6,1.2
		c0.5,0.5,0.6,1.1,0.3,1.7C70.7,17.3,70.1,17.7,69.4,17.6z"/>
	<path class="st0" d="M78.7,38.2c0.8-0.6,1.6-0.5,2.3,0.3c0.3,0.4,0.6,0.9,0.9,1.3c0.3-0.5,0.6-1,0.9-1.5c-1.1-0.9-2.2-1.4-3.5-1.3
		c-1.5,0.1-2.6,0.9-3.1,2.2c-0.5,1.4-0.2,2.5,1.1,3.5c0.2,0.2,0.5,0.4,0.7,0.5c0.5,0.3,1,0.6,1.4,1c0.7,0.5,0.8,1.2,0.4,2
		c-0.3,0.6-1,1-1.8,0.8c-1.2-0.3-2.1-0.9-2.6-2.1c-0.4,0.4-0.7,0.8-1.1,1.3c0.8,0.4,1.4,0.9,2.2,1.2c1.4,0.6,2.9,0.6,4.2-0.3
		c1-0.7,1.5-1.8,1.6-3c0.1-1-0.6-1.6-1.3-2.2c-0.8-0.6-1.5-1.3-2.3-1.9C78,39.5,78.1,38.7,78.7,38.2z"/>
	<path class="st0" d="M52.8,32.7c0.3,0,0.3-0.2,0.4-0.4c0.3-1.6,0.6-3.2,1-4.7c0.2-0.7,0.5-1.5,0.9-2.2c0.6-1,1.3-1.2,2.1-0.8
		c0.3-0.7,0.7-1.3,1.1-2.1c-1.1,0.3-2.1,0.7-2.9,1.5c0-0.2,0-0.3-0.1-0.4c-0.1-1-0.6-1.4-1.6-1.4c-1.2,0-2.1,0.8-2.5,2.1
		c0.3-0.1,0.6-0.3,0.9-0.4c0,0.3,0.1,0.7,0,1c-0.3,1.5-0.6,3-0.9,4.5c-0.2,1.1-0.5,2.2-0.7,3.3C51.3,32.7,52.1,32.6,52.8,32.7z"/>
	<path class="st0" d="M13.5,32.5c0-0.2-0.1-0.4-0.1-0.7c0.3,0.1,0.6,0.3,0.8,0.3c0-0.3,0-0.7,0-1c-0.3-0.7-0.6-1.3-1.2-1.9
		c-0.6-0.5-0.8-1.3-1.6-1.7c0,0.1-0.1,0.2-0.2,0.3c-0.1,0-0.1,0-0.2,0c-0.1-0.3-0.2-0.5-0.3-0.8c-0.1-0.2-0.1-0.4-0.3-0.5
		c-0.3-0.3-0.7-0.5-1.1-0.7c0.1,0.3,0.2,0.6,0.3,0.9c-0.1,0.2-0.1,0.5-0.1,0.7c0,0.6-0.1,1.2,0.4,1.6c0,0,0,0.1,0,0.1
		c-0.3,0.3,0,0.5,0.1,0.7c0.1,0.3,0.3,0.6,0.4,0.7C11.8,31.1,13,31.3,13.5,32.5z"/>
	<path class="st0" d="M28.6,19.6c-0.2,0.5-0.2,1-0.4,1.5c-0.7,1.6-0.8,3.2-0.4,4.8c0.1,0.3,0.2,0.7,0.2,1c-0.7,0.1-1.5,0.2-1.7,0.9
		c-0.2,0.7-0.3,1.5,0.3,2.1c0-0.2,0-0.3,0-0.5c-0.1-0.4-0.1-0.8-0.1-1.2c0-0.6,0.6-1,1.1-0.8c0.4,0.2,0.8,0.2,1.3,0
		c-0.6-0.7-1-1.5-0.8-2.3c0.2-0.9,1.1-1.3,1.7-1.6c-0.2-1.2-0.4-2.4-0.5-3.5c0-0.3-0.3-0.8,0.3-1c0,0,0-0.2,0-0.3c0-0.3,0-0.5,0-0.8
		c-0.1,0-0.1-0.1-0.2-0.1C29.2,18.5,28.8,19,28.6,19.6z"/>
	<path class="st0" d="M24.7,19.1c0.1,0.1,0.3,0.3,0.3,0.5c0,0.3,0.1,0.3,0.4,0.3c0.2,0,0.5,0.1,0.5,0.2c0.1,0.4,0.1,0.8,0.1,1.2
		c0.3,0.1,0.2,0.3,0.1,0.6c-0.2-0.1-0.4-0.2-0.6-0.4c0.2,0.8,0.4,1.5,0.6,2.1c0.1,0,0.1,0,0.2,0c0.1-0.5,0.2-0.9,0.2-1.4
		c-0.1-0.7,0.2-1.3,0.6-1.8c0.3-0.4,0.6-0.8,1-1.1c0.7-0.6,1.2-1.4,1.5-2.2c0.2-0.5,0-0.7-0.7-1c-0.5-0.2-0.5,0.1-0.7,0.4
		c0.1,0.2,0.3,0.3,0.4,0.4c0.2,0.3,0.4,0.6,0.2,1c-0.4,0.8-1,1.5-2,1.8c-0.2-0.3-0.1-0.4,0.2-0.5c0.6-0.3,1-0.7,1-1.4
		c0-0.3,0-0.7,0-0.9c-0.4-0.1-0.8-0.2-1.1-0.3c0.1,0.2,0.3,0.3,0.4,0.4c0.2,0.3,0.5,0.6,0.5,0.9c0,0.5-0.3,0.9-0.8,1
		c-0.4,0.1-0.9,0.1-1.2-0.3c-0.3-0.4-0.4-0.9-0.1-1.3c0.1-0.2,0.2-0.3,0.4-0.6c-0.4,0-0.8,0.1-0.8-0.5c-0.6,0.9-0.4,1.9-0.3,2.8
		c-0.6-0.2-0.7-0.6-0.7-1.1C24,18.5,24.3,18.8,24.7,19.1z"/>
	<path class="st0" d="M8.4,40.6c0.1-0.2,0.2-0.4,0.2-0.6c-0.6,0-0.6,0-0.9-0.5c0-0.1,0-0.1-0.1-0.2c-0.6-0.5-1.2-1.1-1.7-1.5
		c-0.1,0.4-0.2,0.9-0.3,1.4c0,0,0,0,0.1,0.1c0.6,0.2,0.8,0.7,0.9,1.3c0,0.2,0.3,0.5,0.5,0.6c0.5,0.4,1.3,0.6,1.6,1.3
		c0,0,0.1,0,0.1,0.1C8.4,42,9.2,41.1,8.4,40.6z"/>
	<path class="st0" d="M22.7,23.7c-0.5,0.5-0.2,1-0.2,1.5c0.1-0.1,0.3-0.2,0.5-0.4c0.2,0.4,0.3,0.8,0.6,1.3c0-0.6,0-1.1,0-1.6
		c0,0,0.1,0,0.1,0c0.1,0.2,0.1,0.3,0.2,0.6c0.1-0.3,0-0.8,0.6-0.6c-0.2-0.4-0.5-0.8-0.6-1.1c-0.3-0.1-0.6-0.1-0.7-0.2
		c-0.1-0.5-0.7-0.8-0.5-1.5c0.1-0.3,0.3-1,0.6-1.1c-0.2-0.3-0.4-0.6-0.6-0.9c-0.3,0.3-0.7,0.6-0.7,0.9c0,0.8-0.1,1.6,0.5,2.2
		C22.9,23.1,22.9,23.6,22.7,23.7z"/>
	<path class="st0" d="M20.3,24.5c0,1,0.4,1.9,1,2.7c0.3,0.4,0.7,0.8,1,1.3c0.5,0.8,1.5,1.2,2.5,0.9c-0.1-0.1-0.1-0.3-0.2-0.4
		c-0.8-0.1-1.6,0-2.2-0.7c-0.5-0.6-1-1.2-1.2-2.1c0.4,0,0.7,0,1,0c-0.2-0.2-0.4-0.4-0.6-0.4c-0.6-0.1-0.8-0.5-1.1-1
		C20.5,24.8,20.4,24.7,20.3,24.5z"/>
	<path class="st0" d="M14.5,37.9c1.3-1.5,2.7-2.7,4.5-3.5C17.6,34.5,14.6,36.8,14.5,37.9z"/>
	<path class="st0" d="M26.1,18.2c0.1,0.2,0.4,0.3,0.6,0.3c0.2,0,0.4-0.2,0.5-0.4c0.1-0.2,0-0.4,0-0.7c0-0.1-0.3,0-0.5,0
		c0-0.1-0.1-0.2-0.1-0.4c-0.2,0.2-0.4,0.3-0.5,0.5C26,17.7,26,18,26.1,18.2z"/>
	<path class="st0" d="M12.2,32.3c-0.3-0.2-0.6-0.5-0.9-0.7c0,0-0.1,0.1-0.1,0.1c0.6,0.6,0.8,1.5,1.9,1.6c-0.1-0.3-0.2-0.5-0.2-0.8
		C12.6,32.5,12.3,32.4,12.2,32.3z"/>
	<path class="st0" d="M21.6,21.7c0,0-0.1,0.1-0.1,0.1c-0.1-0.2-0.3-0.5-0.4-0.7c0,0.9,0.2,1.8,0.8,2.5C21.8,23,21.7,22.4,21.6,21.7z
		"/>
	<path class="st0" d="M16.6,31.6c-0.3-0.3-0.6-0.7-0.8-0.9c-0.2,0.5,0.6,1.6,1.3,1.7c-0.1-0.3-0.3-0.6-0.4-0.9
		C16.7,31.5,16.6,31.5,16.6,31.6z"/>
	<path class="st0" d="M14.9,38.5c0.7-0.6,1.6-1.4,2.3-2C16.4,36.7,14.9,38,14.9,38.5z"/>
	<path class="st0" d="M16.9,30c-0.3-0.3-0.7-0.5-1-0.8c0,0-0.1,0-0.1,0.1c0.4,0.6,0.8,1.1,1.1,1.7C16.9,30.6,16.9,30.3,16.9,30z"/>
	<path class="st0" d="M24.4,22.6C24.5,22.6,24.5,22.6,24.4,22.6c0.1-0.4,0.2-0.8,0.2-1.1c-0.2-0.2-0.4-0.4-0.6-0.5
		C24.2,21.4,24.3,22,24.4,22.6z"/>
	<path class="st0" d="M25.4,20.4c-0.1,0.2-0.1,0.3-0.1,0.4c0,0-0.1,0.1-0.1,0.1c-0.1-0.2-0.2-0.4-0.3-0.6c0,0-0.1,0.1-0.1,0.1
		c0.1,0.4,0.1,0.8,0.7,0.9c0-0.2,0-0.3,0-0.4c0.1,0,0.3,0.1,0.4,0.1C25.6,20.8,25.5,20.6,25.4,20.4z"/>
	<path class="st0" d="M24.2,20.1c-0.2-0.4-0.4-0.8-0.7-1.2c-0.2,0.2-0.2,0.5,0,0.9C23.8,20.1,24,20.1,24.2,20.1z"/>
	<path class="st0" d="M22.3,26.4C22.3,26.4,22.3,26.4,22.3,26.4L22.3,26.4C22.3,26.3,22.2,26.3,22.3,26.4
		C22.2,26.3,22.2,26.4,22.3,26.4C22.3,26.4,22.3,26.4,22.3,26.4z"/>
	<path class="st0" d="M23.7,28c-0.4-0.7-0.7-1.3-1.4-1.6c0.4,0.5,0.7,1,1.1,1.5C23.4,27.9,23.6,28,23.7,28z"/>
	<path class="st0" d="M22.4,42.8c0-0.1-0.1-0.1-0.1-0.2c-0.2,0.5-0.4,1.1-0.5,1.6c0,0,0.1,0,0.1,0c0.3-0.6,0.6-1.1,0.9-1.7
		c0,0,0,0-0.1,0C22.6,42.6,22.5,42.7,22.4,42.8z"/>
	<path class="st0" d="M11.3,32.7c-0.2-0.2-0.5-0.3-0.7-0.5c0,0-0.1,0.1-0.1,0.1c0.5,0.4,0.9,0.8,1.4,1.1
		C11.7,33.2,11.6,32.9,11.3,32.7z"/>
	<path class="st0" d="M9.3,39c0,0-0.1,0.1-0.1,0.1c0.3,0.2,0.6,0.4,0.9,0.7C10.2,39.1,9.6,39.3,9.3,39z"/>
	<path class="st0" d="M12,40.1c-0.3-0.1-0.7-0.3-1-0.5C11.1,40.3,11.5,40.4,12,40.1z"/>
</g>
</svg>
