<?xml version="1.0" encoding="utf-8"?>
<!-- Generator: Adobe Illustrator 21.0.0, SVG Export Plug-In . SVG Version: 6.00 Build 0)  -->
<svg version="1.1" baseProfile="basic" id="Слой_1"
	 xmlns="http://www.w3.org/2000/svg" xmlns:xlink="http://www.w3.org/1999/xlink" x="0px" y="0px" viewBox="0 0 143.4 60"
	 xml:space="preserve" height="80px">
<style type="text/css">
	.st0{fill:#FFFFFF;}
</style>
<g>
	<path class="st0" d="M118.5,36c-0.9,0.7-1.7,1.3-2.5,1.9c-1.6,1.1-3.4,1.6-5.3,1.3c-2.3-0.3-3.7-1.9-4.4-3.9
		c-0.4-1.1-0.5-2.3-0.7-3.4c0-0.1,0-0.3-0.1-0.4c-1.1,0.5-2.2,1.1-3.3,1.5c-0.7,0.3-1.4,0.5-2.1,0.6c-0.9,0.2-1.6,0.5-2.1,1.2
		c-1.4,1.8-3,3.3-5.2,4.3c-1.4,0.6-2.9,0.9-4.4,0.7c-1.8-0.3-3.1-1.3-3.8-3c-0.3-0.8-0.6-1.6-0.9-2.6c-0.5,0.6-1,1.2-1.5,1.7
		c-1.4,1.4-2.9,2.5-4.6,3.4c-1,0.5-1.5,1.2-1.9,2.3c-1.8,5.5-4.6,10.4-8.5,14.7c-1.6,1.8-3.5,3.1-5.9,3.7c-1.6,0.4-3.2,0.2-4.7-0.6
		c-2.1-1.1-2.9-3.4-2.2-5.9c0.5-1.6,1.4-3,2.5-4.2c2.4-2.6,5.3-4.7,8.3-6.5c2.3-1.4,4.7-2.8,7-4.2c1-0.6,1.6-1.3,1.8-2.4
		c0.1-0.5,0.3-1,0.3-1.6c0-0.3-0.1-0.5-0.1-0.8c-0.2,0.1-0.5,0.2-0.6,0.4c-0.3,0.3-0.6,0.7-0.9,1.1c-1.1,1.3-2.3,2.6-3.9,3.3
		c-0.9,0.4-1.8,0.8-2.8,0.9c-2,0.3-3.6-0.8-4.3-2.6c-0.2-0.6-0.4-1.2-0.6-1.8c-0.7,0.5-1.3,1.1-2,1.5c-1,0.7-2.1,1.1-3.4,1
		c-1.7-0.1-2.8-1-3.6-2.5c-0.7-1.2-0.8-1.2-1.7-0.1c-1.2,1.4-2.6,2.7-4.2,3.7c-1.2,0.7-2.4,1-3.7,0.8c-1.8-0.2-3-1.2-3.5-2.9
		c-0.1-0.3-0.1-0.6-0.2-1c-0.4,0.3-0.7,0.6-1,0.9c-1.4,1.2-2.8,2.2-4.6,2.6c-2.6,0.6-5-1-5.1-3.7c-0.1-1.3,0.3-2.6,1-3.8
		c1-1.8,2.1-3.6,3.3-5.3c1.1-1.6,1-2.1-0.6-3c-1.6-0.9-1.9-0.8-2.8,0.8c-0.6,1.1-1.1,2.2-1.6,3.2c-0.5,0.9-1.2,1.2-2,0.8
		c-0.8-0.4-1.2-1.2-0.8-2.1c0.6-1.3,1.2-2.7,1.9-4c0.5-0.9,0.6-1.8,0.3-2.9c-0.5-1.6,0.1-3.5,1.5-4.4c0.6-0.4,1.3-0.6,2-0.6
		c1-0.1,1.6,0.6,1.6,1.6c0,0.7-0.1,1.5-0.3,2.2c-0.3,1.2-0.1,1.5,0.9,2.1c1,0.6,1.9,1.2,2.8,1.9c1.6,1.2,1.9,2.9,0.9,4.6
		c-0.8,1.4-1.8,2.6-2.7,4c-0.6,0.9-1.1,1.9-1.6,2.8c-0.2,0.3-0.3,0.7-0.3,1c-0.1,0.8,0.3,1.3,1,1.1c0.6-0.1,1.2-0.4,1.7-0.8
		c2-1.4,3.5-3.1,4.8-5.1c0.9-1.3,1.6-2.8,2.4-4.1c1.7-2.6,3.8-4.6,6.5-6c2-1,4.1-1.3,6.4-0.9c0.7,0.1,1.4,0,2-0.1
		c0.7-0.2,1.3-0.3,1.9,0.2c0.5,0.5,0.6,1.2,0.3,1.9c-0.5,1.3-1.1,2.5-1.7,3.8c-1,2-1.7,4.1-2,6.3c-0.1,0.7-0.1,1.5,0.1,2.3
		c0.2,0.9,0.8,1.3,1.7,0.8c0.8-0.4,1.5-0.9,2.1-1.5c1.9-2,3.2-4.4,4.3-6.9c0.6-1.4,1.2-2.8,1.8-4.2c0.2-0.4,0.4-0.9,0.6-1.3
		c0.5-0.8,1.5-1.2,2.3-0.8c0.8,0.3,1.2,1.3,0.9,2.3c-0.6,1.6-1.3,3.2-1.9,4.9c-0.8,2.2-1.5,4.4-2.2,6.6c-0.2,0.7-0.2,1.4-0.1,2.1
		c0.2,1.2,1,1.7,2.1,1c1.2-0.8,2.4-1.7,3.4-2.7c3.1-3.2,5.2-7,7-11c0.2-0.4,0.4-0.8,0.6-1.2c0.5-1,1.6-1.4,2.4-1
		c0.8,0.4,1.2,1.3,0.9,2.4c-0.5,1.9-1.1,3.8-1.6,5.7c-0.4,1.6-0.8,3.3-1.2,4.9c-0.1,0.4,0,0.9,0,1.3c0.4-0.2,0.9-0.3,1.2-0.6
		c2-1.7,3.6-3.6,5-5.8c0.5-0.8,0.9-1.8,1.5-2.6c1.6-2.5,3.7-4.4,6.6-5.3c0.6-0.2,1.1-0.5,1.6-0.9c2.5-1.8,5.3-1,6.4,1.8
		c0.9,2.2,0.8,4.5,0.3,6.8c-0.1,0.4-0.2,0.8-0.3,1.2c-0.2,0.8,0.1,1,0.8,0.8c0.5-0.1,0.9-0.4,1.3-0.6c0.5-0.3,1-0.7,1.5-1.1
		c1-0.7,1.5-1.7,1.8-2.9c1.8-7.6,4.9-14.6,9.5-20.8c1-1.3,2.1-2.6,3.6-3.4c1.8-1,3.6-0.7,4.8,0.8c0.9,1.1,0.9,2.5,0.6,3.8
		c-0.6,3.4-2.1,6.4-3.7,9.4c-2.9,5.4-6.8,10.1-11.2,14.4c-1.3,1.3-1.3,2.8-1,4.4c0,0.2,0.1,0.5,0.2,0.7c0.5,1.5,1.6,2.1,3.2,1.6
		c1.6-0.4,2.7-1.5,3.8-2.7c1.6-1.7,2.9-3.6,4-5.7c1.8-3.8,4.6-6.7,8.5-8.3c1.7-0.7,3.5-0.8,5.4-0.5c0.7,0.1,1.4,0,2.1-0.1
		c0.7-0.1,1.3-0.3,1.8,0.2c0.5,0.5,0.6,1.2,0.4,1.9c-0.5,1.3-1.1,2.6-1.7,3.9c-1,2-1.6,4.1-2,6.3c-0.1,0.7-0.1,1.5,0.1,2.2
		c0.2,0.9,0.8,1.2,1.6,0.8c0.8-0.4,1.6-1,2.3-1.7c0.7-0.6,1.2-1.5,1.9-2.1c0.4-0.3,1-0.6,1.5-0.6c1,0,1.7,1.2,1.1,2.1
		c-1.6,2.8-3.6,5.2-6.9,5.8c-1.7,0.3-3.2-0.3-4.2-1.9c-0.2-0.3-0.4-0.7-0.6-1c-0.4-0.6-0.5-0.7-1-0.1c-0.4,0.4-0.7,0.7-1,1.1
		c-1.2,1.3-2.5,2.5-4.1,3.3c-1.1,0.6-2.3,0.7-3.6,0.5c-1.6-0.3-2.6-1.2-3.1-2.8C118.6,36.3,118.6,36.2,118.5,36z M42.5,33.7
		c0,0.3,0,0.4,0,0.5c0,1.4,0.9,2.1,2.2,1.4c0.8-0.4,1.6-1,2.3-1.7c2.5-2.7,4.6-5.7,6.5-8.8c0.3-0.5,0.6-1.1,0.7-1.7
		c0.3-1.2-0.3-1.9-1.5-1.6c-1,0.2-2,0.5-2.9,0.9c-2.9,1.5-4.6,4-6,6.8C43,30.9,42.5,32.4,42.5,33.7z M121.7,33.9c0.1,0,0.1,0,0.2,0
		c0,0.1,0,0.3,0,0.4c0,1.3,0.9,2,2,1.4c0.9-0.5,1.9-1.2,2.6-2c2.4-2.7,4.4-5.6,6.3-8.7c0.3-0.5,0.5-1,0.6-1.5
		c0.3-1.3-0.3-1.9-1.6-1.8c-1.4,0.2-2.6,0.7-3.8,1.5c-2.6,1.8-4.2,4.4-5.4,7.2C122.2,31.5,122,32.8,121.7,33.9z M57.9,54.9
		c0,1.2,0.8,2,2.1,1.9c1.6-0.1,2.9-0.9,4.1-2c2.7-2.6,4.8-5.7,6.6-8.9c0.5-0.8,0.9-1.7,1.3-2.6c0.1-0.2,0.1-0.5-0.1-0.6
		c-0.1-0.1-0.4-0.1-0.6,0c-0.3,0.1-0.7,0.3-0.9,0.5c-2.4,1.7-4.8,3.4-7.2,5c-1.6,1.1-2.9,2.4-4,3.9C58.5,52.9,57.9,53.8,57.9,54.9z
		 M121.8,5.2c-0.2-0.4-0.2-0.8-0.4-0.9c-0.2-0.1-0.6,0-0.8,0.2c-0.6,0.5-1.1,1.1-1.6,1.7c-2.6,3.5-4.9,7.2-6.5,11.3
		c-0.7,1.8-1.4,3.6-2,5.4c-0.1,0.2,0,0.5,0.1,0.8c0.2-0.1,0.5-0.2,0.6-0.4c0.4-0.5,0.8-1,1.2-1.5c3.3-4.1,6.3-8.4,8.3-13.3
		C121.2,7.6,121.5,6.3,121.8,5.2z M90,36.4c0.1,0,0.2,0,0.3,0c0.1,0,0.2,0,0.3-0.1c1.8-0.3,3-1.5,4.2-2.7c0.6-0.6,0.5-0.8-0.1-1.4
		c-1.2-1.1-2.2-2.3-2.5-3.9c-0.2-1-0.2-2-0.3-3c0-0.3-0.1-0.5-0.2-0.7c-0.3,0.1-0.6,0.1-0.7,0.3c-0.6,0.8-1.3,1.5-1.8,2.4
		c-1.1,1.9-2,3.9-1.8,6.2C87.5,35.4,88.5,36.4,90,36.4z M98.5,24.3c0-0.5-0.1-1.2-0.3-1.8c-0.1-0.5-0.4-1-0.9-0.9
		c-0.4,0-0.9,0.4-1,0.7c-1.1,2.2-1.4,4.4-0.2,6.7c0.2,0.3,0.6,0.5,0.8,0.8c0.2-0.3,0.6-0.5,0.7-0.8C98,27.3,98.4,25.4,98.5,24.3z"/>
	<path class="st0" d="M19.2,18.4c0.4,0.3,0.8,0.7,1.2,1.1c3.1,3.2,4.2,7.1,3,11.4c-1.2,4.4-4.2,7-8.6,8c-3,0.7-6.1,0.6-9.2,0.5
		c-1.1-0.1-2.2-0.1-3.3-0.2c-0.5-0.1-1.1-0.2-1.5-0.4c-0.6-0.4-0.8-1-0.6-1.7c2.1-8.7,4.2-17.3,6.4-26C7.2,7.8,8.1,4.6,9,1.4
		c0.2-0.7,0.6-1.2,1.3-1.2c2.9-0.3,5.7-0.3,8.5,0.8c3.2,1.4,5.6,4.9,5.6,8.4c0,3.9-1.6,6.8-5,8.7C19.3,18.2,19.3,18.2,19.2,18.4
		C19.2,18.3,19.2,18.3,19.2,18.4z M9,36.3c1.8,0,3.7-0.1,5.4-0.7c3.5-1.1,5.7-3.5,6-7.2c0.3-3.4-1.1-6.1-4.1-8
		c-0.9-0.5-1.3-0.4-1.9,0.4c-0.6,1-1.3,1.9-1.9,2.9c-2.3,3.5-4.6,7-6.9,10.5c-0.6,1-0.2,1.8,0.9,1.9C7.4,36.2,8.2,36.3,9,36.3z
		 M21.2,9.5c-0.1-1.5-0.6-3-1.8-4.3c-1.4-1.4-3.3-1.8-5.2-2c-1-0.1-1.5,0.5-1.3,1.5c0.3,1.3,0.5,2.7,0.8,4c0.5,2.1,0.9,4.1,1.4,6.2
		c0.2,0.8,0.8,1.2,1.4,0.9C19.1,14.9,21.1,13.2,21.2,9.5z M12.4,17.8c0-0.3-0.1-0.5-0.1-0.7c-0.5-2.2-1-4.5-1.6-6.7
		c-0.1-0.2-0.2-0.4-0.4-0.6c-0.1,0.2-0.3,0.3-0.4,0.5c-1.4,5.5-2.8,11-4.2,16.4c-0.1,0.2,0.1,0.5,0.1,0.7c0.2-0.1,0.4-0.2,0.5-0.4
		c1.9-2.8,3.7-5.7,5.6-8.5C12.2,18.4,12.3,18.1,12.4,17.8z"/>
</g>
</svg>
