<?xml version="1.0" encoding="utf-8"?>
<!-- Generator: Adobe Illustrator 21.0.0, SVG Export Plug-In . SVG Version: 6.00 Build 0)  -->
<svg version="1.1" baseProfile="basic" id="Слой_1"
	 xmlns="http://www.w3.org/2000/svg" xmlns:xlink="http://www.w3.org/1999/xlink" x="0px" y="0px" viewBox="0 0 189 60"
	 xml:space="preserve">
<style type="text/css">
	.st0{fill:#FFFFFF;}
</style>
<g>
	<path class="st0" d="M189,19.3c-4.2-0.4-7.8,2.4-7.9,6.6c-0.2,5.5-0.1,11.1-0.1,16.6c0,0.4,0,0.8,0,1.3c-2.4,0-4.6,0-7,0
		c0-10.2,0-20.5,0-30.8c2.3,0,4.5,0,6.9,0c0,0.9,0,1.8,0,2.8c0.1,0.1,0.2,0.1,0.3,0.2c0.2-0.3,0.4-0.6,0.7-0.9
		c1.6-1.6,3.7-2.3,5.9-2.4c0.4,0,0.8-0.1,1.2-0.1C189,14.8,189,17.1,189,19.3z"/>
	<path class="st0" d="M47.6,4.8c-0.4,3.6-3.9,6.9-7.6,7.5c-3.2,0.5-6.1-0.4-8.7-2.3c-2-1.5-4.1-2.5-6.6-2.9
		C16.6,5.9,9.1,11.5,8,19.7c-0.9,6.8,2.4,13.2,8.1,16c5.9,2.8,14.3,1.6,18.3-5.1c0.1-0.2,0.2-0.3,0.4-0.5c2.2,1.2,4.3,2.4,6.6,3.6
		c-0.2,0.4-0.4,0.8-0.6,1.1c-3.8,5.5-9.2,8.5-15.7,9.3C14.6,45.4,4.7,39.2,1.3,29.5c-4.7-13.3,4-27.4,17.9-29.2
		c6.1-0.8,11.7,0.4,16.6,4.2c0.3,0.2,0.6,0.4,0.9,0.6c1.6,0.9,3,0.5,3.9-1.1c0.1-0.2,0.5-0.5,0.6-0.5C43.4,3.9,45.5,4.4,47.6,4.8z"
		/>
	<path class="st0" d="M104,60c0-15.7,0-31.3,0-46.9c2.3,0,4.6,0,6.9,0c0,1,0,1.9,0,3c0.3-0.2,0.4-0.3,0.6-0.4
		c4.8-3.7,10.1-3.8,15.5-1.7c5.2,2,7.9,6.2,8.7,11.7c0.4,2.7,0.3,5.3-0.5,8c-1.6,5.9-6.4,9.9-12.6,10.5c-2.3,0.3-4.7,0.3-6.9-0.6
		c-1.7-0.6-3.2-1.5-4.8-2.4c0,0.1,0,0.4,0,0.8c0,5.4,0,10.9,0,16.3c0,0.8-0.3,1.1-1.1,1.1C107.9,59.5,106,59.8,104,60z M119.9,37.6
		c5.4,0,9.1-3.8,9.1-9.2c0-5.4-3.8-9.2-9.1-9.2c-5.4,0-9.1,3.7-9.1,9.2C110.8,33.8,114.6,37.6,119.9,37.6z"/>
	<path class="st0" d="M68.1,16c0-1.1,0-1.9,0-2.9c2.4,0,4.7,0,7.1,0c0,10.2,0,20.4,0,30.7c-2.3,0-4.6,0-7,0c0-0.9,0-1.8,0-2.9
		c-3.6,3.1-7.6,3.8-12,3.1c-3.8-0.6-7.1-2.4-9.5-5.4c-4.9-6.1-4.5-15.7,0.8-21.2C52.5,12.1,62.2,10.7,68.1,16z M59.2,37.6
		c5,0.1,9-3.8,9.2-9c0.1-5.1-3.7-9.3-8.7-9.4c-5.1-0.1-9.4,3.9-9.5,8.9C50,33.2,54,37.4,59.2,37.6z"/>
	<path class="st0" d="M170.1,34.8c-0.7,1.1-1.2,2.3-2,3.4c-6,7.9-21.5,9.2-27.9-1.9c-5.7-9.9,0.9-22.5,12.3-23.5
		c8.6-0.8,15.9,4.6,17.5,12.9c0.3,1.7,0.4,3.4,0,5.2c-8.1,0-16.3,0-24.5,0c0.5,2.3,1.7,4.1,3.6,5.3c3.4,2.2,6.9,2.1,10.5,0.4
		c0.5-0.3,1.1-0.7,1.4-1.2c0.5-0.8,1.2-0.9,2.1-0.9c2.2,0,4.5,0,6.7,0C170,34.6,170.1,34.7,170.1,34.8z M162.5,24.6
		c-0.6-3.2-4.7-5.8-8.6-5.7c-3.6,0.1-7.5,2.9-7.8,5.7C151.6,24.6,157,24.6,162.5,24.6z"/>
	<path class="st0" d="M98.9,18.2c-1.8,0.9-3.7,1.7-5.5,2.6c-0.3-0.3-0.5-0.6-0.7-0.9c-1-1.1-2.2-1.4-3.6-1.1
		c-0.9,0.2-1.6,0.7-1.8,1.7c-0.2,1,0.1,1.8,1,2.4c0.7,0.4,1.4,0.8,2.2,1.1c1.3,0.5,2.6,0.9,3.9,1.5c4.5,1.9,6.4,4.6,6.3,8.9
		c-0.1,4-2.9,7.6-6.9,9.1c-5.5,2-11.4,0-14.1-4.6c-0.8-1.4-1.3-3-1.2-4.4c2.1,0,4.2,0,6.3,0c0.2,0,0.4,0.3,0.5,0.5
		c1,2.3,2.6,3.2,5,2.9c1.7-0.2,3-1.4,3.3-3.1c0.3-1.6-0.3-2.9-2-3.7c-0.9-0.4-1.8-0.7-2.7-1c-1.5-0.6-3.1-1.1-4.4-1.9
		c-4.9-3.1-5.2-9.9-0.6-13.5c4.8-3.8,12.3-2.3,15.2,3.1C98.8,17.9,98.8,18,98.9,18.2z"/>
</g>
</svg>
