<?xml version="1.0" encoding="utf-8"?>
<!-- Generator: Adobe Illustrator 21.0.0, SVG Export Plug-In . SVG Version: 6.00 Build 0)  -->
<svg version="1.1" baseProfile="basic" id="Слой_1"
	 xmlns="http://www.w3.org/2000/svg" xmlns:xlink="http://www.w3.org/1999/xlink" x="0px" y="0px" viewBox="0 0 213.8 60"
	 xml:space="preserve">
<style type="text/css">
	.st0{fill:#FFFFFF;}
</style>
<g>
	<path class="st0" d="M212.9,0.6c-2.5-0.1-5.1-0.1-7.6-0.1c-0.3,0-0.6,0-0.9,0.1c0,0.1-0.1,0.2-0.1,0.3c0.6,0.2,1.3,0.5,1.9,0.7
		c2,0.7,2.4,1.5,1.7,3.5c-1.5,4.1-3,8.1-4.6,12.1c-2,4.9-4.1,9.8-6.2,14.7c-0.2,0.6-0.7,1-1.1,1.5c-0.4-0.5-1-0.9-1.2-1.5
		c-1.8-4-3.5-8-5.3-12c-0.8-1.7-0.8-3.4-0.1-5.1c1.6-3.8,3.2-7.7,4.9-11.5c0.5-1.1,1.3-1.8,2.5-2.2c0.3-0.1,0.5-0.3,0.8-0.5
		c0-0.1-0.1-0.2-0.1-0.3c-0.4,0-0.8,0-1.2-0.1c-2.1,0-4.3-0.1-6.4-0.1c-0.4,0-0.8,0.1-1.2,0.2c0.3,0.3,0.7,0.6,1,0.8
		c2,0.7,2.4,1.6,1.9,3.7c-0.1,0.2-0.2,0.5-0.2,0.7c-1,2.5-1.9,5-3,7.5c-0.2,0.4-0.6,0.6-0.9,1c-0.3-0.3-0.6-0.6-0.8-1
		c-0.3-0.7-0.6-1.4-0.9-2.1c-0.8-2.3-1.7-4.6-2.4-7c-0.4-1.4,0-2.1,1.3-2.7c0.3-0.1,0.5-0.4,0.8-0.6c0-0.1-0.1-0.2-0.1-0.3
		c-0.4,0-0.7,0-1.1,0c-2.7,0-5.3-0.1-8-0.1c-0.8,0-1.5-0.1-2.3,0c-0.2,0-0.4,0.3-0.6,0.4c0.2,0.2,0.3,0.4,0.5,0.5
		c0.3,0.1,0.7,0.2,1,0.2c1.6,0.1,2.7,1,3.5,2.3c0.3,0.6,0.7,1.1,0.9,1.8c1.9,4.7,3.7,9.4,5.5,14.1c0.2,0.4,0.1,0.9,0,1.4
		c-0.5,1.5-1.1,3-1.7,4.4c-0.9,2.3-1.9,4.6-2.9,6.8c-0.4,0.9-0.9,1-1.5,0.1c-0.3-0.4-0.5-0.9-0.7-1.4c-2.5-5.9-5-11.7-7.4-17.6
		c-1.2-3-2.3-6.1-3.4-9.3c-0.5-1.6-0.1-2.2,1.4-2.8c0.2-0.1,0.4-0.4,0.6-0.6c-0.3-0.1-0.5-0.3-0.8-0.3c-1.6,0-3.2,0.2-4.7,0.2
		c-1.7,0-3.4-0.1-5-0.2c-0.4,0-0.8,0.1-1.2,0.2c0,0.1,0,0.2,0,0.4c0.5,0.2,0.9,0.4,1.4,0.5c1.8,0.3,3.2,1.3,3.9,3c1,2.2,2,4.5,3,6.8
		c4,9.9,8,19.8,12,29.6c0.1,0.2,0.2,0.4,0.5,0.9c0.6-1.4,1-2.5,1.4-3.7c1.8-4.6,3.7-9.2,5.6-13.7c0.2-0.4,0.6-0.7,0.9-1
		c0.2,0.3,0.6,0.7,0.7,1c2.3,5.5,4.7,11,7,16.5c0.1,0.2,0.3,0.4,0.6,0.9c0.3-0.7,0.6-1.2,0.8-1.7c3-7,6-14.1,9-21.1
		c2.1-4.8,4.2-9.6,6.3-14.4c0.5-1.1,1.2-2,2.4-2.6c0.3-0.1,0.4-0.5,0.6-0.7C213.5,0.8,213.2,0.6,212.9,0.6z"/>
	<path class="st0" d="M120.3,39.5c-2.5-0.3-4.1-1.9-5.4-3.7c-3.4-4.8-6.7-9.7-10.1-14.6c-0.6-0.8-0.3-1.3,0.5-1.7
		c2.8-1.7,4.9-4.1,5.7-7.4c1.1-4.8-1.3-9.2-5.8-10.8c-2.2-0.8-4.4-0.9-6.6-0.9c-3.9,0.1-7.8,0.1-11.7,0.1c-0.5,0-1.1-0.1-1.6,0
		c-0.3,0-0.6,0.2-0.9,0.4c0.2,0.2,0.4,0.5,0.7,0.6c0.3,0.1,0.6,0.2,0.9,0.3c2.5,0.7,3.2,1.4,3.3,4c0.2,3.4,0.3,6.9,0.3,10.3
		c0,6.3-0.1,12.6-0.1,18.9c0,2.4-1,4-3.4,4.7c-0.3,0.1-0.4,0.4-0.7,0.6c0.3,0.1,0.5,0.2,0.8,0.3c0.3,0,0.7-0.1,1-0.1
		c2.8-0.1,5.5-0.2,8.3-0.2c1.2,0,2.5,0.2,3.7,0.2c0.3,0,0.6-0.1,0.8-0.2c0-0.1,0-0.2,0-0.3c-0.4-0.1-0.8-0.2-1.3-0.2
		c-3.5-0.4-5-1.8-5.2-5.3c-0.2-2.8-0.2-5.6-0.2-8.5c0-1,0-2,0.1-2.9c0.1-1.2,0.6-1.7,1.8-1.7c1.2,0,2.5,0.1,3.7,0.2
		c0.6,0.1,1.3,0.4,1.7,0.8c0.9,1,1.8,2,2.5,3.1c2.5,3.7,4.9,7.6,7.3,11.3c2,3,5,4,8.5,3.8c0.6,0,1.1-0.3,1.7-0.5
		c0-0.1,0-0.2-0.1-0.3C120.5,39.7,120.4,39.6,120.3,39.5z M100.2,19.8c-1.6,0.1-3.2,0-4.8-0.1c-1.5-0.1-2-0.6-2-2.2
		c-0.1-2.2,0-4.4,0-6.6c0,0,0,0,0,0c0-2,0-4.1,0-6.1c0-2,0.8-2.9,2.9-3c3.6-0.1,6.9,0.7,9.2,3.8c2.1,2.8,2.5,6.1,1.3,9.4
		C105.7,18.1,103.2,19.6,100.2,19.8z"/>
	<path class="st0" d="M154.9,32.1c-0.1,0.3-0.2,0.6-0.4,0.9c-1.2,1.9-3,3.2-5.2,3.7c-2.7,0.6-5.4,1-8.1,1.4c-1.4,0.2-2.8,0.1-4.3,0
		c-1.1-0.1-1.9-0.8-2.1-2c-0.8-4.7-0.4-9.4-0.4-14c0-0.8,0.6-1.1,1.3-1.1c2.8,0,5.7-0.1,8.5-0.1c2.2,0,3.6,1.1,4.2,3.3
		c0.1,0.3,0.2,0.6,0.3,0.9c0.1,0.2,0.2,0.3,0.4,0.6c0-3.8,0-7.4,0-11c-0.1,0-0.2,0-0.3,0c-0.1,0.1-0.2,0.2-0.2,0.4
		c-0.4,2.5-2.1,3.4-4.3,3.6c-2.5,0.2-5.1,0.2-7.6,0.3c-1.7,0-2.4-0.4-2.4-2.2c0-4.1,0-8.2,0.1-12.3c0-1.3,0.8-1.9,2-2
		c3.3,0,6.6-0.1,9.9,0.1c3,0.2,4.1,1.4,4.3,4.4c0,0.3,0.1,0.6,0.1,0.8c0.1,0,0.2,0,0.3,0c0.1-0.3,0.2-0.6,0.2-1
		c0.2-1.7,0.2-3.3,0.4-5c0.2-1.3,0.2-1.3-1.1-1.3c-6.3,0.1-12.5,0.1-18.8,0.2c-1.9,0-3.9,0-5.8,0c-0.2,0-0.4,0.3-0.6,0.4
		c0.2,0.1,0.4,0.3,0.7,0.4c2.8,0.3,4.3,1.8,4.3,4.7c0.1,9.5,0.2,19.1,0.2,28.6c0,0.9-0.2,1.9-0.5,2.8c-0.4,1.4-1.5,2.1-2.9,2.2
		c-0.3,0-0.6,0.1-0.9,0.1c0,0.1,0,0.3,0,0.4c0.6,0.1,1.2,0.3,1.8,0.2c2.8-0.1,5.6-0.4,8.3-0.4c4.1,0,8.1,0.1,12.2,0.3
		c1.1,0,2-0.4,2.9-1c1.9-1.6,3.1-3.6,3.8-6c0.1-0.2,0-0.4,0-0.7C155.2,32.3,155.1,32.2,154.9,32.1z"/>
	<path class="st0" d="M75.1,32.1c-5.4,9-20.1,10.5-26.9,0c-3.8-5.9-4.5-12.4-3-19.1C47.4,3,58.5-1.9,67.6,3c3.6,1.9,6,4.9,7.8,8.5
		c0.2,0.3,0.4,0.6,0.6,0.8c0.1,0,0.2-0.1,0.3-0.1c-0.3-2.9-0.6-5.7-0.9-8.7C74,4.1,74,4.1,72.7,3.4C69.1,1.5,65.3,0.2,61.2,0
		c-7.7-0.3-13.9,2.4-17.9,9.1c-3.2,5.4-3.9,11.3-2.6,17.4c1.4,6.7,5.5,11.2,12.1,13.3c4.3,1.3,8.6,1.2,13,0.4
		c3.2-0.6,6.2-1.6,8.8-3.6c0.4-0.3,0.7-0.8,0.8-1.2c0.4-1.3,0.6-2.6,0.9-3.9c0.1-0.4,0.1-0.8,0.1-1.1c-0.1,0-0.2-0.1-0.3-0.1
		C75.8,31,75.4,31.5,75.1,32.1z"/>
	<path class="st0" d="M5.5,0.5c-0.3,0-0.5,0-0.8,0C4.5,0.6,4.3,0.8,4.1,0.9c0.2,0.2,0.3,0.4,0.5,0.5C5,1.6,5.5,1.7,6,1.8
		c2.7,0.7,3.6,1.8,3.6,4.6c0,6.7,0,13.4,0,20.2c0,0,0,0-0.1,0c0,6.7,0,13.4,0,20.2c0,2.8-0.4,5.5-1.7,8c-1.6,3.1-3.6,3.5-6,1
		c-0.6-0.6-1-0.6-1.3,0.2C0.2,56.7,0,57.6,0,58.4C-0.1,59.5,0.5,60,1.6,60c1.8,0,3.5-0.4,4.9-1.4c2.8-1.9,4.9-4.5,5.6-7.9
		c0.7-3.4,1.2-6.8,1.3-10.2c0.2-7.5,0.2-15,0.2-22.4c0-4.2,0-8.3-0.1-12.5c0-2.2,0.6-3.1,2.7-3.9c0.2-0.1,0.4-0.4,0.6-0.6
		c-0.3-0.1-0.6-0.3-0.8-0.3C12.6,0.6,9,0.5,5.5,0.5z"/>
	<path class="st0" d="M22.7,38.3c1.3,1.1,2.5,2.1,3.8,3.2c0.9-1,2-2.2,3.1-3.4c-1.1-1.2-2.2-2.4-3.4-3.7
		C25,35.7,23.9,36.9,22.7,38.3z"/>
</g>
</svg>
